# Blender v2.79 (sub 0) OBJ File: 'Pacman.blend'
# www.blender.org
mtllib PacMan2.mtl
o Sphere.004_Sphere.009
v 0.000000 0.195090 0.980785
v 0.000000 0.382683 0.923880
v 0.000000 0.555570 0.831470
v 0.000000 0.707107 0.707107
v 0.000000 0.831470 0.555570
v 0.000000 0.923880 0.382683
v 0.000000 0.980785 0.195090
v 0.000000 1.000000 0.000000
v 0.000000 0.980785 -0.195090
v 0.000000 0.555570 -0.831470
v 0.038060 0.191342 0.980785
v 0.074658 0.375330 0.923880
v 0.108386 0.544895 0.831470
v 0.137950 0.693520 0.707107
v 0.162212 0.815493 0.555570
v 0.180240 0.906127 0.382683
v 0.191342 0.961940 0.195090
v 0.195090 0.980785 0.000000
v 0.191342 0.961940 -0.195090
v 0.180240 0.906127 -0.382683
v 0.162212 0.815493 -0.555570
v 0.137950 0.693520 -0.707107
v 0.108386 0.544895 -0.831470
v 0.074658 0.375330 -0.923880
v 0.038060 0.191341 -0.980785
v 0.074658 0.180240 0.980785
v 0.146447 0.353553 0.923880
v 0.212608 0.513280 0.831470
v 0.270598 0.653281 0.707107
v 0.318190 0.768178 0.555570
v 0.353553 0.853553 0.382683
v 0.375330 0.906127 0.195090
v 0.382684 0.923879 0.000000
v 0.375330 0.906127 -0.195090
v 0.353554 0.853553 -0.382683
v 0.318190 0.768178 -0.555570
v 0.270598 0.653281 -0.707107
v 0.212608 0.513280 -0.831470
v 0.146447 0.353553 -0.923880
v 0.074658 0.180240 -0.980785
v 0.108387 0.162212 0.980785
v 0.212608 0.318190 0.923880
v 0.308658 0.461940 0.831470
v 0.392848 0.587938 0.707107
v 0.461940 0.691342 0.555570
v 0.513280 0.768178 0.382683
v 0.544895 0.815493 0.195090
v 0.555570 0.831469 0.000000
v 0.544895 0.815493 -0.195090
v 0.513280 0.768178 -0.382683
v 0.461940 0.691342 -0.555570
v 0.392848 0.587938 -0.707107
v 0.308658 0.461940 -0.831470
v 0.212608 0.318189 -0.923880
v 0.108386 0.162211 -0.980785
v 0.108386 -0.162212 0.980785
v 0.212608 -0.318190 0.923880
v 0.308658 -0.461940 0.831470
v 0.392848 -0.587938 0.707107
v 0.461940 -0.691342 0.555570
v 0.513280 -0.768178 0.382683
v 0.544895 -0.815493 0.195090
v 0.555570 -0.831470 0.000000
v 0.544895 -0.815493 -0.195090
v 0.513280 -0.768178 -0.382683
v 0.461940 -0.691342 -0.555570
v 0.392848 -0.587938 -0.707107
v 0.308658 -0.461940 -0.831470
v 0.212608 -0.318190 -0.923880
v 0.108386 -0.162212 -0.980785
v 0.000000 -0.000000 -1.000000
v 0.074658 -0.180240 0.980785
v 0.146447 -0.353554 0.923880
v 0.212608 -0.513280 0.831470
v 0.270598 -0.653282 0.707107
v 0.318190 -0.768178 0.555570
v 0.353553 -0.853554 0.382683
v 0.375330 -0.906128 0.195090
v 0.382683 -0.923880 0.000000
v 0.375330 -0.906128 -0.195090
v 0.353553 -0.853554 -0.382683
v 0.318190 -0.768178 -0.555570
v 0.270598 -0.653282 -0.707107
v 0.212608 -0.513280 -0.831470
v 0.146447 -0.353554 -0.923880
v 0.074658 -0.180240 -0.980785
v 0.038060 -0.191342 0.980785
v 0.074658 -0.375331 0.923880
v 0.108386 -0.544896 0.831470
v 0.137950 -0.693520 0.707107
v 0.162212 -0.815493 0.555570
v 0.180240 -0.906128 0.382683
v 0.191342 -0.961940 0.195090
v 0.195090 -0.980786 0.000000
v 0.191342 -0.961940 -0.195090
v 0.180240 -0.906128 -0.382683
v 0.162212 -0.815493 -0.555570
v 0.137950 -0.693520 -0.707107
v 0.108386 -0.544895 -0.831470
v 0.074658 -0.375331 -0.923880
v 0.038060 -0.191342 -0.980785
v -0.000000 -0.195091 0.980785
v 0.000000 -0.382684 0.923880
v 0.000000 -0.555571 0.831470
v -0.000000 -0.707107 0.707107
v -0.000000 -0.831470 0.555570
v 0.000000 -0.923880 0.382683
v -0.000000 -0.980785 0.195090
v -0.000000 -1.000000 0.000000
v -0.000000 -0.980785 -0.195090
v 0.000000 -0.923880 -0.382683
v -0.000000 -0.831470 -0.555570
v -0.000000 -0.707107 -0.707107
v -0.000000 -0.555570 -0.831470
v 0.000000 -0.382684 -0.923880
v 0.000000 -0.195091 -0.980785
v -0.038060 -0.191342 0.980785
v -0.074658 -0.375331 0.923880
v -0.108386 -0.544896 0.831470
v -0.137950 -0.693520 0.707107
v -0.162212 -0.815493 0.555570
v -0.180240 -0.906128 0.382683
v -0.191342 -0.961940 0.195090
v -0.195090 -0.980786 0.000000
v -0.191342 -0.961940 -0.195090
v -0.180240 -0.906128 -0.382683
v -0.162212 -0.815493 -0.555570
v -0.137950 -0.693520 -0.707107
v -0.108386 -0.544895 -0.831470
v -0.074658 -0.375331 -0.923880
v -0.038060 -0.191342 -0.980785
v -0.074658 -0.180240 0.980785
v -0.146447 -0.353554 0.923880
v -0.212608 -0.513280 0.831470
v -0.270598 -0.653282 0.707107
v -0.318190 -0.768178 0.555570
v -0.353553 -0.853554 0.382683
v -0.375330 -0.906127 0.195090
v -0.382684 -0.923880 0.000000
v -0.375330 -0.906127 -0.195090
v -0.353553 -0.853554 -0.382683
v -0.318190 -0.768178 -0.555570
v -0.270598 -0.653282 -0.707107
v -0.212608 -0.513280 -0.831470
v -0.146447 -0.353554 -0.923880
v -0.074658 -0.180240 -0.980785
v -0.108386 -0.162212 0.980785
v -0.212608 -0.318190 0.923880
v -0.308658 -0.461940 0.831470
v -0.392847 -0.587938 0.707107
v -0.461940 -0.691342 0.555570
v -0.513280 -0.768178 0.382683
v -0.544895 -0.815493 0.195090
v -0.555570 -0.831470 0.000000
v -0.544895 -0.815493 -0.195090
v -0.513280 -0.768178 -0.382683
v -0.461940 -0.691342 -0.555570
v -0.392847 -0.587938 -0.707107
v -0.308658 -0.461940 -0.831470
v -0.212607 -0.318190 -0.923880
v -0.108386 -0.162212 -0.980785
v -0.000000 -0.000001 1.000000
v -0.137950 -0.137950 0.980785
v -0.270598 -0.270598 0.923880
v -0.392848 -0.392848 0.831470
v -0.500000 -0.500000 0.707107
v -0.587938 -0.587938 0.555570
v -0.653281 -0.653282 0.382683
v -0.693520 -0.693520 0.195090
v -0.707107 -0.707107 0.000000
v -0.693520 -0.693520 -0.195090
v -0.653281 -0.653282 -0.382683
v -0.587938 -0.587938 -0.555570
v -0.500000 -0.500000 -0.707107
v -0.392847 -0.392848 -0.831470
v -0.270598 -0.270598 -0.923880
v -0.137950 -0.137950 -0.980785
v -0.162212 -0.108387 0.980785
v -0.318190 -0.212608 0.923880
v -0.461940 -0.308659 0.831470
v -0.587938 -0.392848 0.707107
v -0.691342 -0.461940 0.555570
v -0.768178 -0.513280 0.382683
v -0.815493 -0.544895 0.195090
v -0.831470 -0.555570 0.000000
v -0.815493 -0.544895 -0.195090
v -0.768178 -0.513280 -0.382683
v -0.691342 -0.461940 -0.555570
v -0.587938 -0.392848 -0.707107
v -0.461940 -0.308658 -0.831470
v -0.318190 -0.212608 -0.923880
v -0.162212 -0.108387 -0.980785
v -0.180240 -0.074658 0.980785
v -0.353553 -0.146447 0.923880
v -0.513280 -0.212608 0.831470
v -0.653281 -0.270598 0.707107
v -0.768177 -0.318190 0.555570
v -0.853553 -0.353554 0.382683
v -0.906127 -0.375330 0.195090
v -0.923880 -0.382684 0.000000
v -0.906127 -0.375330 -0.195090
v -0.853553 -0.353554 -0.382683
v -0.768177 -0.318190 -0.555570
v -0.653281 -0.270598 -0.707107
v -0.513280 -0.212608 -0.831470
v -0.353553 -0.146447 -0.923880
v -0.180240 -0.074658 -0.980785
v -0.191342 -0.038061 0.980785
v -0.375330 -0.074658 0.923880
v -0.544895 -0.108387 0.831470
v -0.693520 -0.137950 0.707107
v -0.815493 -0.162212 0.555570
v -0.906127 -0.180240 0.382683
v -0.961939 -0.191342 0.195090
v -0.980785 -0.195090 0.000000
v -0.961939 -0.191342 -0.195090
v -0.906127 -0.180240 -0.382683
v -0.815493 -0.162212 -0.555570
v -0.693520 -0.137950 -0.707107
v -0.544895 -0.108387 -0.831470
v -0.375330 -0.074658 -0.923880
v -0.191342 -0.038061 -0.980785
v -0.195090 -0.000000 0.980785
v -0.382683 -0.000000 0.923880
v -0.555570 -0.000000 0.831470
v -0.707107 -0.000000 0.707107
v -0.831469 -0.000000 0.555570
v -0.923879 -0.000000 0.382683
v -0.980785 -0.000000 0.195090
v -1.000000 -0.000000 0.000000
v -0.980785 -0.000000 -0.195090
v -0.923879 -0.000000 -0.382683
v -0.831469 -0.000000 -0.555570
v -0.707107 -0.000000 -0.707107
v -0.555570 -0.000000 -0.831470
v -0.382683 -0.000000 -0.923880
v -0.195090 -0.000000 -0.980785
v -0.191342 0.038060 0.980785
v -0.375330 0.074658 0.923880
v -0.544895 0.108386 0.831470
v -0.693520 0.137949 0.707107
v -0.815493 0.162211 0.555570
v -0.906127 0.180240 0.382683
v -0.961939 0.191342 0.195090
v -0.980785 0.195090 0.000000
v -0.961939 0.191342 -0.195090
v -0.906127 0.180240 -0.382683
v -0.815493 0.162211 -0.555570
v -0.693520 0.137949 -0.707107
v -0.544895 0.108386 -0.831470
v -0.375330 0.074658 -0.923880
v -0.191342 0.038060 -0.980785
v -0.180240 0.074658 0.980785
v -0.353553 0.146446 0.923880
v -0.513280 0.212607 0.831470
v -0.653281 0.270598 0.707107
v -0.768177 0.318189 0.555570
v -0.853553 0.353553 0.382683
v -0.906127 0.375330 0.195090
v -0.923879 0.382683 0.000000
v -0.906127 0.375330 -0.195090
v -0.853553 0.353553 -0.382683
v -0.768177 0.318189 -0.555570
v -0.653281 0.270598 -0.707107
v -0.513280 0.212607 -0.831470
v -0.353553 0.146446 -0.923880
v -0.180240 0.074657 -0.980785
v -0.162212 0.108386 0.980785
v -0.318190 0.212607 0.923880
v -0.461940 0.308658 0.831470
v -0.587938 0.392847 0.707107
v -0.691341 0.461939 0.555570
v -0.768178 0.513280 0.382683
v -0.815493 0.544895 0.195090
v -0.831469 0.555570 0.000000
v -0.815493 0.544895 -0.195090
v -0.768178 0.513280 -0.382683
v -0.691341 0.461939 -0.555570
v -0.587938 0.392847 -0.707107
v -0.461940 0.308658 -0.831470
v -0.318189 0.212607 -0.923880
v -0.162212 0.108386 -0.980785
v -0.137950 0.137949 0.980785
v -0.270598 0.270598 0.923880
v -0.392847 0.392847 0.831470
v -0.500000 0.500000 0.707107
v -0.587937 0.587937 0.555570
v -0.653281 0.653281 0.382683
v -0.693519 0.693519 0.195090
v -0.707106 0.707106 0.000000
v -0.693519 0.693519 -0.195090
v -0.653281 0.653281 -0.382683
v -0.587937 0.587937 -0.555570
v -0.500000 0.500000 -0.707107
v -0.392847 0.392847 -0.831470
v -0.270598 0.270598 -0.923880
v -0.137950 0.137949 -0.980785
v -0.108386 0.162211 0.980785
v -0.212607 0.318189 0.923880
v -0.308658 0.461939 0.831470
v -0.392847 0.587937 0.707107
v -0.461939 0.691341 0.555570
v -0.513280 0.768177 0.382683
v -0.544895 0.815492 0.195090
v -0.555570 0.831469 0.000000
v -0.544895 0.815492 -0.195090
v -0.513280 0.768177 -0.382683
v -0.461939 0.691341 -0.555570
v -0.392847 0.587937 -0.707107
v -0.308658 0.461939 -0.831470
v -0.212607 0.318189 -0.923880
v -0.108386 0.162211 -0.980785
v -0.074658 0.180240 0.980785
v -0.146447 0.353553 0.923880
v -0.212607 0.513280 0.831470
v -0.270598 0.653281 0.707107
v -0.318189 0.768177 0.555570
v -0.353553 0.853553 0.382683
v -0.375330 0.906127 0.195090
v -0.382683 0.923879 0.000000
v -0.375330 0.906127 -0.195090
v -0.353553 0.853553 -0.382683
v -0.318189 0.768177 -0.555570
v -0.270598 0.653281 -0.707107
v -0.212607 0.513279 -0.831470
v -0.146446 0.353553 -0.923880
v -0.074658 0.180240 -0.980785
v -0.038060 0.191342 0.980785
v -0.074658 0.375330 0.923880
v -0.108386 0.544895 0.831470
v -0.137950 0.693520 0.707107
v -0.162211 0.815492 0.555570
v -0.180240 0.906127 0.382683
v -0.191341 0.961939 0.195090
v -0.195090 0.980785 0.000000
v -0.191341 0.961939 -0.195090
v -0.180240 0.906127 -0.382683
v -0.162211 0.815492 -0.555570
v -0.137950 0.693520 -0.707107
v -0.108386 0.544895 -0.831470
v -0.074658 0.375330 -0.923880
v -0.038060 0.191341 -0.980785
v 0.000000 0.923879 -0.382683
v 0.000000 0.831469 -0.555570
v 0.000000 0.707106 -0.707107
v 0.000000 0.382683 -0.923880
v 0.000000 0.195090 -0.980785
vt 0.000000 0.000000
vt 1.000000 1.000000
vt 0.000000 1.000000
vt 1.000000 0.000000
vt 0.000000 1.000000
vt 0.000000 0.000000
vt 1.000000 0.000000
vt 0.000000 1.000000
vt 0.000000 0.000000
vt 1.000000 0.000000
vt 0.000000 1.000000
vt 0.000000 0.000000
vt 1.000000 0.000000
vt 0.000000 1.000000
vt 0.000000 0.000000
vt 1.000000 0.000000
vt 0.000000 1.000000
vt 0.000000 0.000000
vt 1.000000 0.000000
vt 0.000000 1.000000
vt 0.000000 0.000000
vt 1.000000 0.000000
vt 0.000000 1.000000
vt 0.000000 0.000000
vt 1.000000 0.000000
vt 0.000000 1.000000
vt 0.000000 0.000000
vt 1.000000 0.000000
vt 0.000000 1.000000
vt 0.000000 0.000000
vt 1.000000 0.000000
vt 0.000000 1.000000
vt 0.000000 0.000000
vt 0.000000 0.000000
vt 1.000000 0.000000
vt 1.000000 1.000000
vt 0.000000 0.000000
vt 1.000000 0.000000
vt 1.000000 1.000000
vt 1.000000 0.000000
vt 0.000000 1.000000
vt 0.000000 0.000000
vt 1.000000 0.000000
vt 0.000000 1.000000
vt 0.000000 0.000000
vt 1.000000 0.000000
vt 0.000000 1.000000
vt 0.000000 0.000000
vt 1.000000 0.000000
vt 0.000000 1.000000
vt 0.000000 0.000000
vt 0.000000 0.000000
vt 1.000000 1.000000
vt 0.000000 1.000000
vt 1.000000 0.000000
vt 0.000000 1.000000
vt 0.000000 0.000000
vt 1.000000 0.000000
vt 0.000000 1.000000
vt 0.000000 0.000000
vt 1.000000 0.000000
vt 0.000000 1.000000
vt 0.000000 0.000000
vt 0.000000 0.000000
vt 1.000000 1.000000
vt 0.000000 1.000000
vt 1.000000 0.000000
vt 0.000000 1.000000
vt 0.000000 0.000000
vt 1.000000 0.000000
vt 0.000000 1.000000
vt 0.000000 0.000000
vt 1.000000 0.000000
vt 0.000000 1.000000
vt 0.000000 0.000000
vt 1.000000 0.000000
vt 0.000000 1.000000
vt 0.000000 0.000000
vt 1.000000 0.000000
vt 0.000000 1.000000
vt 0.000000 0.000000
vt 1.000000 0.000000
vt 0.000000 1.000000
vt 0.000000 0.000000
vt 1.000000 0.000000
vt 0.000000 1.000000
vt 0.000000 0.000000
vt 0.000000 0.000000
vt 1.000000 1.000000
vt 1.000000 0.000000
vt 1.000000 1.000000
vt 0.000000 0.000000
vt 1.000000 1.000000
vt 0.000000 1.000000
vt 1.000000 0.000000
vt 0.000000 1.000000
vt 0.000000 0.000000
vt 1.000000 0.000000
vt 0.000000 1.000000
vt 0.000000 0.000000
vt 0.000000 0.000000
vt 1.000000 1.000000
vt 0.000000 1.000000
vt 1.000000 0.000000
vt 0.000000 1.000000
vt 0.000000 0.000000
vt 1.000000 0.000000
vt 0.000000 1.000000
vt 0.000000 0.000000
vt 0.000000 0.000000
vt 1.000000 1.000000
vt 1.000000 0.000000
vt 1.000000 1.000000
vt 1.000000 0.000000
vt 0.000000 1.000000
vt 0.000000 0.000000
vt 1.000000 0.000000
vt 0.000000 1.000000
vt 0.000000 0.000000
vt 1.000000 0.000000
vt 0.000000 1.000000
vt 0.000000 0.000000
vt 1.000000 0.000000
vt 0.000000 1.000000
vt 0.000000 0.000000
vt 0.000000 0.000000
vt 1.000000 1.000000
vt 0.000000 1.000000
vt 1.000000 0.000000
vt 0.000000 1.000000
vt 0.000000 0.000000
vt 0.000000 0.000000
vt 1.000000 1.000000
vt 0.000000 1.000000
vt 1.000000 0.000000
vt 0.000000 1.000000
vt 0.000000 0.000000
vt 1.000000 0.000000
vt 0.000000 1.000000
vt 0.000000 0.000000
vt 0.000000 0.000000
vt 1.000000 1.000000
vt 0.000000 1.000000
vt 1.000000 0.000000
vt 0.000000 1.000000
vt 0.000000 0.000000
vt 1.000000 0.000000
vt 0.000000 1.000000
vt 0.000000 0.000000
vt 0.000000 0.000000
vt 1.000000 1.000000
vt 0.000000 1.000000
vt 1.000000 0.000000
vt 0.000000 1.000000
vt 0.000000 0.000000
vt 1.000000 0.000000
vt 0.000000 1.000000
vt 0.000000 0.000000
vt 0.000000 0.000000
vt 1.000000 1.000000
vt 1.000000 0.000000
vt 1.000000 1.000000
vt 1.000000 0.000000
vt 0.000000 1.000000
vt 0.000000 0.000000
vt 1.000000 0.000000
vt 0.000000 1.000000
vt 0.000000 0.000000
vt 1.000000 0.000000
vt 0.000000 1.000000
vt 0.000000 0.000000
vt 0.000000 0.000000
vt 1.000000 1.000000
vt 0.000000 1.000000
vt 0.000000 0.000000
vt 1.000000 1.000000
vt 0.000000 1.000000
vt 1.000000 0.000000
vt 0.000000 1.000000
vt 0.000000 0.000000
vt 1.000000 0.000000
vt 0.000000 1.000000
vt 0.000000 0.000000
vt 1.000000 0.000000
vt 0.000000 1.000000
vt 0.000000 0.000000
vt 1.000000 0.000000
vt 0.000000 1.000000
vt 0.000000 0.000000
vt 1.000000 0.000000
vt 0.000000 1.000000
vt 0.000000 0.000000
vt 1.000000 0.000000
vt 0.000000 1.000000
vt 0.000000 0.000000
vt 0.000000 0.000000
vt 1.000000 1.000000
vt 0.000000 1.000000
vt 1.000000 0.000000
vt 0.000000 1.000000
vt 0.000000 0.000000
vt 1.000000 0.000000
vt 0.000000 1.000000
vt 0.000000 0.000000
vt 1.000000 0.000000
vt 0.000000 1.000000
vt 0.000000 0.000000
vt 1.000000 0.000000
vt 0.000000 1.000000
vt 0.000000 0.000000
vt 1.000000 0.000000
vt 0.000000 1.000000
vt 0.000000 0.000000
vt 1.000000 0.000000
vt 0.000000 1.000000
vt 0.000000 0.000000
vt 0.000000 0.000000
vt 1.000000 1.000000
vt 0.000000 1.000000
vt 0.000000 0.000000
vt 1.000000 1.000000
vt 0.000000 1.000000
vt 1.000000 0.000000
vt 0.000000 1.000000
vt 0.000000 0.000000
vt 0.000000 0.000000
vt 1.000000 1.000000
vt 1.000000 0.000000
vt 1.000000 1.000000
vt 1.000000 0.000000
vt 0.000000 1.000000
vt 0.000000 0.000000
vt 1.000000 0.000000
vt 0.000000 1.000000
vt 0.000000 0.000000
vt 1.000000 0.000000
vt 0.000000 1.000000
vt 0.000000 0.000000
vt 0.000000 0.000000
vt 1.000000 1.000000
vt 0.000000 1.000000
vt 0.000000 0.000000
vt 1.000000 1.000000
vt 0.000000 1.000000
vt 1.000000 0.000000
vt 0.000000 1.000000
vt 0.000000 0.000000
vt 0.000000 0.000000
vt 1.000000 1.000000
vt 1.000000 0.000000
vt 1.000000 1.000000
vt 1.000000 0.000000
vt 0.000000 1.000000
vt 0.000000 0.000000
vt 1.000000 0.000000
vt 0.000000 1.000000
vt 0.000000 0.000000
vt 1.000000 0.000000
vt 0.000000 1.000000
vt 0.000000 0.000000
vt 0.000000 0.000000
vt 1.000000 1.000000
vt 0.000000 1.000000
vt 0.000000 0.000000
vt 1.000000 1.000000
vt 0.000000 1.000000
vt 0.000000 0.000000
vt 1.000000 1.000000
vt 0.000000 1.000000
vt 1.000000 0.000000
vt 0.000000 1.000000
vt 0.000000 0.000000
vt 1.000000 0.000000
vt 0.000000 1.000000
vt 0.000000 0.000000
vt 0.000000 0.000000
vt 1.000000 1.000000
vt 0.000000 1.000000
vt 1.000000 0.000000
vt 0.000000 1.000000
vt 0.000000 0.000000
vt 1.000000 0.000000
vt 0.000000 1.000000
vt 0.000000 0.000000
vt 0.000000 0.000000
vt 1.000000 1.000000
vt 0.000000 1.000000
vt 0.000000 0.000000
vt 1.000000 1.000000
vt 0.000000 1.000000
vt 1.000000 0.000000
vt 0.000000 1.000000
vt 0.000000 0.000000
vt 0.000000 0.000000
vt 1.000000 1.000000
vt 0.000000 1.000000
vt 1.000000 0.000000
vt 0.000000 1.000000
vt 0.000000 0.000000
vt 1.000000 0.000000
vt 0.000000 1.000000
vt 0.000000 0.000000
vt 1.000000 0.000000
vt 0.000000 1.000000
vt 0.000000 0.000000
vt 0.000000 0.000000
vt 1.000000 1.000000
vt 0.000000 1.000000
vt 1.000000 0.000000
vt 0.000000 1.000000
vt 0.000000 0.000000
vt 1.000000 0.000000
vt 0.000000 1.000000
vt 0.000000 0.000000
vt 0.000000 0.000000
vt 1.000000 1.000000
vt 1.000000 0.000000
vt 1.000000 1.000000
vt 1.000000 0.000000
vt 0.000000 1.000000
vt 0.000000 0.000000
vt 1.000000 0.000000
vt 0.000000 1.000000
vt 0.000000 0.000000
vt 0.000000 0.000000
vt 1.000000 1.000000
vt 0.000000 1.000000
vt 0.000000 0.000000
vt 1.000000 1.000000
vt 0.000000 1.000000
vt 0.000000 0.000000
vt 1.000000 1.000000
vt 0.000000 1.000000
vt 1.000000 0.000000
vt 0.000000 1.000000
vt 0.000000 0.000000
vt 0.000000 0.000000
vt 1.000000 1.000000
vt 1.000000 0.000000
vt 1.000000 1.000000
vt 0.000000 0.000000
vt 1.000000 1.000000
vt 0.000000 1.000000
vt 1.000000 0.000000
vt 0.000000 1.000000
vt 0.000000 0.000000
vt 1.000000 0.000000
vt 0.000000 1.000000
vt 0.000000 0.000000
vt 1.000000 0.000000
vt 0.000000 1.000000
vt 0.000000 0.000000
vt 0.000000 0.000000
vt 1.000000 1.000000
vt 0.000000 1.000000
vt 0.000000 0.000000
vt 1.000000 1.000000
vt 0.000000 1.000000
vt 1.000000 0.000000
vt 0.000000 1.000000
vt 0.000000 0.000000
vt 0.000000 0.000000
vt 1.000000 1.000000
vt 0.000000 1.000000
vt 1.000000 0.000000
vt 0.000000 1.000000
vt 0.000000 0.000000
vt 1.000000 0.000000
vt 0.000000 1.000000
vt 0.000000 0.000000
vt 0.000000 0.000000
vt 1.000000 1.000000
vt 0.000000 1.000000
vt 1.000000 0.000000
vt 0.000000 1.000000
vt 0.000000 0.000000
vt 1.000000 0.000000
vt 0.000000 1.000000
vt 0.000000 0.000000
vt 0.000000 0.000000
vt 1.000000 1.000000
vt 0.000000 1.000000
vt 0.000000 0.000000
vt 1.000000 1.000000
vt 0.000000 1.000000
vt 1.000000 0.000000
vt 0.000000 1.000000
vt 0.000000 0.000000
vt 1.000000 0.000000
vt 0.000000 1.000000
vt 0.000000 0.000000
vt 0.000000 0.000000
vt 1.000000 1.000000
vt 0.000000 1.000000
vt 0.000000 0.000000
vt 1.000000 1.000000
vt 0.000000 1.000000
vt 1.000000 0.000000
vt 0.000000 1.000000
vt 0.000000 0.000000
vt 0.000000 0.000000
vt 1.000000 1.000000
vt 1.000000 0.000000
vt 1.000000 1.000000
vt 1.000000 0.000000
vt 0.000000 1.000000
vt 0.000000 0.000000
vt 1.000000 0.000000
vt 0.000000 1.000000
vt 0.000000 0.000000
vt 1.000000 0.000000
vt 0.000000 1.000000
vt 0.000000 0.000000
vt 1.000000 0.000000
vt 0.000000 1.000000
vt 0.000000 0.000000
vt 1.000000 0.000000
vt 0.000000 1.000000
vt 0.000000 0.000000
vt 0.000000 0.000000
vt 1.000000 1.000000
vt 0.000000 1.000000
vt 0.000000 0.000000
vt 1.000000 1.000000
vt 1.000000 0.000000
vt 1.000000 1.000000
vt 1.000000 0.000000
vt 0.000000 1.000000
vt 0.000000 0.000000
vt 1.000000 0.000000
vt 0.000000 1.000000
vt 0.000000 0.000000
vt 1.000000 0.000000
vt 0.000000 1.000000
vt 0.000000 0.000000
vt 1.000000 0.000000
vt 0.000000 1.000000
vt 0.000000 0.000000
vt 0.000000 0.000000
vt 1.000000 1.000000
vt 0.000000 1.000000
vt 0.000000 0.000000
vt 1.000000 1.000000
vt 0.000000 1.000000
vt 1.000000 0.000000
vt 0.000000 1.000000
vt 0.000000 0.000000
vt 0.000000 0.000000
vt 1.000000 1.000000
vt 0.000000 1.000000
vt 1.000000 0.000000
vt 0.000000 1.000000
vt 0.000000 0.000000
vt 1.000000 0.000000
vt 0.000000 1.000000
vt 0.000000 0.000000
vt 1.000000 0.000000
vt 0.000000 1.000000
vt 0.000000 0.000000
vt 0.000000 0.000000
vt 1.000000 1.000000
vt 0.000000 1.000000
vt 0.000000 0.000000
vt 1.000000 1.000000
vt 0.000000 1.000000
vt 1.000000 0.000000
vt 0.000000 1.000000
vt 0.000000 0.000000
vt 0.000000 0.000000
vt 1.000000 1.000000
vt 0.000000 1.000000
vt 1.000000 0.000000
vt 0.000000 1.000000
vt 0.000000 0.000000
vt 1.000000 0.000000
vt 0.000000 1.000000
vt 0.000000 0.000000
vt 0.000000 0.000000
vt 1.000000 1.000000
vt 0.000000 1.000000
vt 0.000000 0.000000
vt 1.000000 1.000000
vt 0.000000 1.000000
vt 1.000000 0.000000
vt 0.000000 1.000000
vt 0.000000 0.000000
vt 1.000000 0.000000
vt 0.000000 1.000000
vt 0.000000 0.000000
vt 0.000000 0.000000
vt 1.000000 1.000000
vt 1.000000 0.000000
vt 1.000000 1.000000
vt 1.000000 0.000000
vt 0.000000 1.000000
vt 0.000000 0.000000
vt 1.000000 0.000000
vt 0.000000 1.000000
vt 0.000000 0.000000
vt 1.000000 0.000000
vt 0.000000 1.000000
vt 0.000000 0.000000
vt 1.000000 0.000000
vt 0.000000 1.000000
vt 0.000000 0.000000
vt 0.000000 0.000000
vt 1.000000 1.000000
vt 0.000000 1.000000
vt 1.000000 0.000000
vt 0.000000 1.000000
vt 0.000000 0.000000
vt 0.000000 0.000000
vt 1.000000 1.000000
vt 1.000000 0.000000
vt 1.000000 1.000000
vt 1.000000 0.000000
vt 0.000000 1.000000
vt 0.000000 0.000000
vt 1.000000 0.000000
vt 0.000000 1.000000
vt 0.000000 0.000000
vt 1.000000 0.000000
vt 0.000000 1.000000
vt 0.000000 0.000000
vt 1.000000 0.000000
vt 0.000000 1.000000
vt 0.000000 0.000000
vt 0.000000 0.000000
vt 1.000000 1.000000
vt 0.000000 1.000000
vt 0.000000 0.000000
vt 1.000000 1.000000
vt 0.000000 1.000000
vt 0.000000 0.000000
vt 1.000000 1.000000
vt 0.000000 1.000000
vt 0.000000 0.000000
vt 1.000000 1.000000
vt 0.000000 1.000000
vt 1.000000 0.000000
vt 0.000000 1.000000
vt 0.000000 0.000000
vt 1.000000 0.000000
vt 0.000000 1.000000
vt 0.000000 0.000000
vt 0.000000 0.000000
vt 1.000000 1.000000
vt 0.000000 1.000000
vt 0.000000 0.000000
vt 1.000000 1.000000
vt 0.000000 1.000000
vt 0.000000 0.000000
vt 1.000000 1.000000
vt 0.000000 1.000000
vt 1.000000 0.000000
vt 0.000000 1.000000
vt 0.000000 0.000000
vt 0.000000 0.000000
vt 1.000000 1.000000
vt 0.000000 1.000000
vt 1.000000 0.000000
vt 0.000000 1.000000
vt 0.000000 0.000000
vt 1.000000 0.000000
vt 0.000000 1.000000
vt 0.000000 0.000000
vt 0.000000 0.000000
vt 1.000000 1.000000
vt 0.000000 1.000000
vt 0.000000 0.000000
vt 1.000000 1.000000
vt 0.000000 1.000000
vt 1.000000 0.000000
vt 0.000000 1.000000
vt 0.000000 0.000000
vt 1.000000 0.000000
vt 0.000000 1.000000
vt 0.000000 0.000000
vt 0.000000 0.000000
vt 1.000000 1.000000
vt 1.000000 0.000000
vt 1.000000 1.000000
vt 1.000000 0.000000
vt 0.000000 1.000000
vt 0.000000 0.000000
vt 0.000000 0.000000
vt 0.000000 1.000000
vt 1.000000 0.000000
vt 0.000000 1.000000
vt 0.000000 0.000000
vt 1.000000 0.000000
vt 0.000000 1.000000
vt 0.000000 0.000000
vt 0.000000 0.000000
vt 1.000000 1.000000
vt 0.000000 1.000000
vt 0.000000 0.000000
vt 1.000000 1.000000
vt 0.000000 1.000000
vt 0.000000 0.000000
vt 1.000000 1.000000
vt 1.000000 0.000000
vt 1.000000 1.000000
vt 0.000000 0.000000
vt 1.000000 1.000000
vt 0.000000 1.000000
vt 0.000000 0.000000
vt 0.000000 1.000000
vt 1.000000 0.000000
vt 0.000000 1.000000
vt 0.000000 0.000000
vt 1.000000 0.000000
vt 0.000000 1.000000
vt 0.000000 0.000000
vt 0.000000 0.000000
vt 1.000000 1.000000
vt 0.000000 1.000000
vt 0.000000 0.000000
vt 1.000000 1.000000
vt 0.000000 1.000000
vt 1.000000 0.000000
vt 0.000000 1.000000
vt 0.000000 0.000000
vt 1.000000 0.000000
vt 0.000000 1.000000
vt 0.000000 0.000000
vt 0.000000 0.000000
vt 1.000000 1.000000
vt 0.000000 1.000000
vt 1.000000 0.000000
vt 0.000000 1.000000
vt 0.000000 0.000000
vt 0.000000 0.000000
vt 1.000000 1.000000
vt 0.000000 1.000000
vt 0.000000 0.000000
vt 1.000000 1.000000
vt 0.000000 1.000000
vt 1.000000 0.000000
vt 0.000000 1.000000
vt 0.000000 0.000000
vt 1.000000 0.000000
vt 0.000000 1.000000
vt 0.000000 0.000000
vt 0.000000 0.000000
vt 1.000000 1.000000
vt 0.000000 1.000000
vt 1.000000 0.000000
vt 0.000000 1.000000
vt 0.000000 0.000000
vt 1.000000 0.000000
vt 0.000000 1.000000
vt 0.000000 0.000000
vt 0.000000 0.000000
vt 1.000000 1.000000
vt 0.000000 1.000000
vt 0.000000 0.000000
vt 1.000000 1.000000
vt 0.000000 1.000000
vt 1.000000 0.000000
vt 0.000000 1.000000
vt 0.000000 0.000000
vt 1.000000 0.000000
vt 0.000000 1.000000
vt 0.000000 0.000000
vt 0.000000 0.000000
vt 1.000000 1.000000
vt 1.000000 0.000000
vt 1.000000 1.000000
vt 0.000000 0.000000
vt 1.000000 1.000000
vt 0.000000 1.000000
vt 0.000000 0.000000
vt 0.000000 1.000000
vt 1.000000 0.000000
vt 0.000000 1.000000
vt 0.000000 0.000000
vt 1.000000 0.000000
vt 0.000000 1.000000
vt 0.000000 0.000000
vt 0.000000 0.000000
vt 1.000000 1.000000
vt 0.000000 1.000000
vt 0.000000 0.000000
vt 1.000000 1.000000
vt 0.000000 1.000000
vt 1.000000 0.000000
vt 0.000000 1.000000
vt 0.000000 0.000000
vt 1.000000 0.000000
vt 0.000000 1.000000
vt 0.000000 0.000000
vt 1.000000 0.000000
vt 0.000000 1.000000
vt 0.000000 0.000000
vt 1.000000 0.000000
vt 0.000000 1.000000
vt 0.000000 0.000000
vt 1.000000 0.000000
vt 0.000000 1.000000
vt 0.000000 0.000000
vt 0.000000 0.000000
vt 1.000000 1.000000
vt 0.000000 1.000000
vt 0.000000 0.000000
vt 1.000000 1.000000
vt 0.000000 1.000000
vt 1.000000 0.000000
vt 0.000000 1.000000
vt 0.000000 0.000000
vt 1.000000 0.000000
vt 0.000000 1.000000
vt 0.000000 0.000000
vt 1.000000 0.000000
vt 0.000000 1.000000
vt 0.000000 0.000000
vt 1.000000 0.000000
vt 0.000000 1.000000
vt 0.000000 0.000000
vt 0.000000 0.000000
vt 1.000000 1.000000
vt 0.000000 1.000000
vt 0.000000 0.000000
vt 1.000000 1.000000
vt 0.000000 1.000000
vt 1.000000 0.000000
vt 0.000000 1.000000
vt 0.000000 0.000000
vt 1.000000 0.000000
vt 0.000000 1.000000
vt 0.000000 0.000000
vt 0.000000 0.000000
vt 1.000000 1.000000
vt 1.000000 0.000000
vt 1.000000 1.000000
vt 1.000000 0.000000
vt 0.000000 1.000000
vt 0.000000 0.000000
vt 1.000000 0.000000
vt 0.000000 1.000000
vt 0.000000 0.000000
vt 0.000000 0.000000
vt 1.000000 1.000000
vt 0.000000 1.000000
vt 0.000000 0.000000
vt 1.000000 1.000000
vt 0.000000 1.000000
vt 1.000000 0.000000
vt 0.000000 1.000000
vt 0.000000 0.000000
vt 1.000000 0.000000
vt 0.000000 1.000000
vt 0.000000 0.000000
vt 0.000000 0.000000
vt 1.000000 1.000000
vt 1.000000 0.000000
vt 1.000000 1.000000
vt 0.000000 0.000000
vt 1.000000 1.000000
vt 0.000000 1.000000
vt 1.000000 0.000000
vt 0.000000 1.000000
vt 0.000000 0.000000
vt 1.000000 0.000000
vt 0.000000 1.000000
vt 0.000000 0.000000
vt 0.000000 0.000000
vt 1.000000 1.000000
vt 0.000000 1.000000
vt 0.000000 0.000000
vt 1.000000 1.000000
vt 0.000000 1.000000
vt 0.000000 0.000000
vt 1.000000 1.000000
vt 0.000000 1.000000
vt 1.000000 0.000000
vt 0.000000 1.000000
vt 0.000000 0.000000
vt 0.000000 0.000000
vt 1.000000 1.000000
vt 0.000000 1.000000
vt 1.000000 0.000000
vt 0.000000 1.000000
vt 0.000000 0.000000
vt 1.000000 0.000000
vt 0.000000 1.000000
vt 0.000000 0.000000
vt 0.000000 0.000000
vt 1.000000 1.000000
vt 0.000000 1.000000
vt 1.000000 0.000000
vt 0.000000 1.000000
vt 0.000000 0.000000
vt 1.000000 0.000000
vt 0.000000 1.000000
vt 0.000000 0.000000
vt 0.000000 0.000000
vt 1.000000 1.000000
vt 0.000000 1.000000
vt 1.000000 0.000000
vt 0.000000 1.000000
vt 0.000000 0.000000
vt 1.000000 0.000000
vt 0.000000 1.000000
vt 0.000000 0.000000
vt 1.000000 0.000000
vt 0.000000 1.000000
vt 0.000000 0.000000
vt 0.000000 0.000000
vt 1.000000 1.000000
vt 0.000000 1.000000
vt 1.000000 0.000000
vt 0.000000 1.000000
vt 0.000000 0.000000
vt 1.000000 0.000000
vt 0.000000 1.000000
vt 0.000000 0.000000
vt 0.000000 0.000000
vt 1.000000 1.000000
vt 1.000000 0.000000
vt 1.000000 1.000000
vt 0.000000 0.000000
vt 1.000000 1.000000
vt 0.000000 1.000000
vt 1.000000 0.000000
vt 0.000000 1.000000
vt 0.000000 0.000000
vt 1.000000 0.000000
vt 0.000000 1.000000
vt 0.000000 0.000000
vt 0.000000 0.000000
vt 1.000000 1.000000
vt 0.000000 1.000000
vt 1.000000 0.000000
vt 0.000000 1.000000
vt 0.000000 0.000000
vt 0.000000 0.000000
vt 1.000000 1.000000
vt 0.000000 1.000000
vt 0.000000 0.000000
vt 1.000000 1.000000
vt 1.000000 0.000000
vt 1.000000 1.000000
vt 1.000000 0.000000
vt 0.000000 1.000000
vt 0.000000 0.000000
vt 1.000000 0.000000
vt 0.000000 1.000000
vt 0.000000 0.000000
vt 1.000000 0.000000
vt 0.000000 1.000000
vt 0.000000 0.000000
vt 1.000000 0.000000
vt 0.000000 1.000000
vt 0.000000 0.000000
vt 0.000000 0.000000
vt 1.000000 1.000000
vt 0.000000 1.000000
vt 1.000000 0.000000
vt 0.000000 1.000000
vt 0.000000 0.000000
vt 1.000000 0.000000
vt 0.000000 1.000000
vt 0.000000 0.000000
vt 0.000000 0.000000
vt 1.000000 1.000000
vt 0.000000 1.000000
vt 0.000000 0.000000
vt 1.000000 1.000000
vt 0.000000 1.000000
vt 1.000000 0.000000
vt 0.000000 1.000000
vt 0.000000 0.000000
vt 0.000000 0.000000
vt 1.000000 1.000000
vt 0.000000 1.000000
vt 0.000000 0.000000
vt 1.000000 1.000000
vt 0.000000 1.000000
vt 0.000000 0.000000
vt 1.000000 1.000000
vt 0.000000 1.000000
vt 1.000000 0.000000
vt 0.000000 1.000000
vt 0.000000 0.000000
vt 0.000000 0.000000
vt 1.000000 1.000000
vt 0.000000 1.000000
vt 1.000000 0.000000
vt 0.000000 1.000000
vt 0.000000 0.000000
vt 1.000000 0.000000
vt 0.000000 1.000000
vt 0.000000 0.000000
vt 1.000000 0.000000
vt 0.000000 1.000000
vt 0.000000 0.000000
vt 0.000000 0.000000
vt 1.000000 1.000000
vt 0.000000 1.000000
vt 1.000000 0.000000
vt 0.000000 1.000000
vt 0.000000 0.000000
vt 1.000000 0.000000
vt 0.000000 1.000000
vt 0.000000 0.000000
vt 0.000000 0.000000
vt 1.000000 1.000000
vt 1.000000 0.000000
vt 1.000000 1.000000
vt 1.000000 0.000000
vt 0.000000 1.000000
vt 0.000000 0.000000
vt 0.000000 0.000000
vt 0.000000 1.000000
vt 1.000000 0.000000
vt 0.000000 1.000000
vt 0.000000 0.000000
vt 0.000000 0.000000
vt 1.000000 1.000000
vt 0.000000 1.000000
vt 0.000000 0.000000
vt 1.000000 1.000000
vt 0.000000 1.000000
vt 1.000000 0.000000
vt 0.000000 1.000000
vt 0.000000 0.000000
vt 0.000000 0.000000
vt 1.000000 1.000000
vt 1.000000 0.000000
vt 1.000000 1.000000
vt 1.000000 0.000000
vt 0.000000 1.000000
vt 0.000000 0.000000
vt 1.000000 0.000000
vt 0.000000 1.000000
vt 0.000000 0.000000
vt 1.000000 0.000000
vt 0.000000 1.000000
vt 0.000000 0.000000
vt 1.000000 0.000000
vt 0.000000 1.000000
vt 0.000000 0.000000
vt 0.000000 0.000000
vt 1.000000 1.000000
vt 0.000000 1.000000
vt 1.000000 0.000000
vt 0.000000 1.000000
vt 0.000000 0.000000
vt 1.000000 0.000000
vt 0.000000 1.000000
vt 0.000000 0.000000
vt 0.000000 0.000000
vt 1.000000 1.000000
vt 0.000000 1.000000
vt 1.000000 0.000000
vt 0.000000 1.000000
vt 0.000000 0.000000
vt 1.000000 0.000000
vt 0.000000 1.000000
vt 0.000000 0.000000
vt 1.000000 0.000000
vt 0.000000 1.000000
vt 0.000000 0.000000
vt 0.000000 0.000000
vt 1.000000 1.000000
vt 0.000000 1.000000
vt 0.000000 0.000000
vt 1.000000 1.000000
vt 0.000000 1.000000
vt 1.000000 0.000000
vt 0.000000 1.000000
vt 0.000000 0.000000
vt 0.000000 0.000000
vt 1.000000 1.000000
vt 0.000000 1.000000
vt 1.000000 0.000000
vt 0.000000 1.000000
vt 0.000000 0.000000
vt 0.000000 0.000000
vt 1.000000 1.000000
vt 0.000000 1.000000
vt 1.000000 0.000000
vt 0.000000 1.000000
vt 0.000000 0.000000
vt 0.000000 0.000000
vt 1.000000 1.000000
vt 0.000000 1.000000
vt 1.000000 0.000000
vt 0.000000 1.000000
vt 0.000000 0.000000
vt 0.000000 0.000000
vt 1.000000 1.000000
vt 0.000000 1.000000
vt 0.000000 0.000000
vt 1.000000 1.000000
vt 1.000000 0.000000
vt 1.000000 1.000000
vt 1.000000 0.000000
vt 0.000000 1.000000
vt 0.000000 0.000000
vt 0.000000 0.000000
vt 0.000000 1.000000
vt 1.000000 0.000000
vt 0.000000 1.000000
vt 0.000000 0.000000
vt 0.000000 0.000000
vt 1.000000 1.000000
vt 0.000000 1.000000
vt 1.000000 1.000000
vt 1.000000 1.000000
vt 1.000000 0.000000
vt 1.000000 0.000000
vt 1.000000 0.000000
vt 1.000000 0.000000
vt 1.000000 1.000000
vt 1.000000 1.000000
vt 1.000000 1.000000
vt 1.000000 1.000000
vt 1.000000 1.000000
vt 1.000000 1.000000
vt 1.000000 1.000000
vt 1.000000 1.000000
vt 1.000000 1.000000
vt 1.000000 1.000000
vt 1.000000 1.000000
vt 1.000000 1.000000
vt 1.000000 0.000000
vt 1.000000 1.000000
vt 1.000000 1.000000
vt 1.000000 1.000000
vt 1.000000 0.000000
vt 1.000000 1.000000
vt 1.000000 1.000000
vt 1.000000 1.000000
vt 1.000000 1.000000
vt 1.000000 1.000000
vt 1.000000 1.000000
vt 1.000000 1.000000
vt 1.000000 0.000000
vt 1.000000 1.000000
vt 1.000000 0.000000
vt 1.000000 1.000000
vt 1.000000 1.000000
vt 1.000000 1.000000
vt 1.000000 1.000000
vt 1.000000 0.000000
vt 1.000000 1.000000
vt 1.000000 0.000000
vt 1.000000 1.000000
vt 1.000000 1.000000
vt 1.000000 0.000000
vt 1.000000 1.000000
vt 1.000000 1.000000
vt 1.000000 1.000000
vt 1.000000 1.000000
vt 1.000000 1.000000
vt 1.000000 1.000000
vt 1.000000 1.000000
vt 1.000000 1.000000
vt 1.000000 1.000000
vt 1.000000 1.000000
vt 1.000000 1.000000
vt 1.000000 0.000000
vt 1.000000 1.000000
vt 1.000000 1.000000
vt 1.000000 1.000000
vt 1.000000 1.000000
vt 1.000000 1.000000
vt 1.000000 1.000000
vt 1.000000 0.000000
vt 1.000000 0.000000
vt 1.000000 1.000000
vt 1.000000 1.000000
vt 1.000000 1.000000
vt 1.000000 1.000000
vt 1.000000 0.000000
vt 1.000000 0.000000
vt 1.000000 1.000000
vt 1.000000 1.000000
vt 1.000000 1.000000
vt 1.000000 0.000000
vt 1.000000 0.000000
vt 1.000000 0.000000
vt 1.000000 1.000000
vt 1.000000 1.000000
vt 1.000000 0.000000
vt 1.000000 1.000000
vt 1.000000 1.000000
vt 1.000000 0.000000
vt 1.000000 0.000000
vt 1.000000 1.000000
vt 1.000000 0.000000
vt 1.000000 1.000000
vt 1.000000 1.000000
vt 1.000000 1.000000
vt 1.000000 0.000000
vt 1.000000 1.000000
vt 1.000000 1.000000
vt 1.000000 1.000000
vt 1.000000 0.000000
vt 1.000000 0.000000
vt 1.000000 0.000000
vt 1.000000 1.000000
vt 1.000000 0.000000
vt 1.000000 1.000000
vt 1.000000 1.000000
vt 1.000000 0.000000
vt 1.000000 0.000000
vt 1.000000 1.000000
vt 1.000000 0.000000
vt 1.000000 1.000000
vt 1.000000 1.000000
vt 1.000000 0.000000
vt 1.000000 1.000000
vt 1.000000 1.000000
vt 1.000000 0.000000
vt 1.000000 0.000000
vt 1.000000 1.000000
vt 1.000000 1.000000
vt 1.000000 0.000000
vt 1.000000 0.000000
vt 1.000000 1.000000
vt 1.000000 1.000000
vt 1.000000 1.000000
vt 1.000000 1.000000
vt 1.000000 1.000000
vt 1.000000 0.000000
vt 1.000000 1.000000
vt 1.000000 1.000000
vt 1.000000 1.000000
vt 1.000000 0.000000
vt 1.000000 0.000000
vt 1.000000 1.000000
vt 1.000000 0.000000
vt 1.000000 1.000000
vt 1.000000 1.000000
vt 1.000000 1.000000
vt 1.000000 0.000000
vt 1.000000 0.000000
vt 1.000000 1.000000
vt 1.000000 0.000000
vt 1.000000 1.000000
vt 1.000000 1.000000
vt 1.000000 0.000000
vt 1.000000 0.000000
vt 1.000000 1.000000
vt 1.000000 1.000000
vt 1.000000 1.000000
vt 1.000000 1.000000
vt 1.000000 1.000000
vt 1.000000 0.000000
vt 1.000000 1.000000
vt 1.000000 1.000000
vt 1.000000 1.000000
vt 1.000000 1.000000
vt 1.000000 0.000000
vt 1.000000 0.000000
vt 1.000000 0.000000
vt 1.000000 0.000000
vt 1.000000 1.000000
vt 1.000000 1.000000
vt 1.000000 0.000000
vt 1.000000 0.000000
vt 1.000000 0.000000
vt 1.000000 1.000000
vt 1.000000 0.000000
vt 1.000000 1.000000
vt 1.000000 1.000000
vt 1.000000 0.000000
vt 1.000000 0.000000
vt 1.000000 1.000000
vt 1.000000 1.000000
vt 1.000000 1.000000
vt 1.000000 0.000000
vt 1.000000 1.000000
vt 1.000000 1.000000
vt 1.000000 0.000000
vt 1.000000 0.000000
vt 1.000000 0.000000
vt 1.000000 0.000000
vt 1.000000 1.000000
vt 1.000000 1.000000
vt 1.000000 0.000000
vt 1.000000 0.000000
vt 1.000000 1.000000
vt 1.000000 1.000000
vt 1.000000 0.000000
vt 1.000000 1.000000
vt 1.000000 0.000000
vt 1.000000 0.000000
vt 1.000000 1.000000
vt 1.000000 1.000000
vt 1.000000 0.000000
vt 1.000000 1.000000
vt 1.000000 1.000000
vt 1.000000 0.000000
vt 1.000000 0.000000
vt 1.000000 1.000000
vt 1.000000 1.000000
vt 1.000000 0.000000
vt 1.000000 0.000000
vt 1.000000 1.000000
vt 1.000000 1.000000
vt 1.000000 0.000000
vt 1.000000 0.000000
vt 1.000000 1.000000
vt 1.000000 1.000000
vt 1.000000 1.000000
vt 1.000000 1.000000
vt 1.000000 0.000000
vt 1.000000 0.000000
vt 1.000000 1.000000
vt 1.000000 1.000000
vt 1.000000 1.000000
vt 1.000000 1.000000
vt 1.000000 0.000000
vt 1.000000 0.000000
vt 1.000000 1.000000
vt 1.000000 1.000000
vt 1.000000 1.000000
vt 1.000000 1.000000
vt 1.000000 0.000000
vt 1.000000 0.000000
vt 1.000000 1.000000
vt 1.000000 1.000000
vt 1.000000 0.000000
vt 1.000000 1.000000
vt 1.000000 0.000000
vt 1.000000 0.000000
vt 1.000000 0.000000
vt 1.000000 1.000000
vt 1.000000 0.000000
vt 1.000000 1.000000
vt 1.000000 1.000000
vt 1.000000 0.000000
vt 1.000000 1.000000
vt 1.000000 1.000000
vt 1.000000 0.000000
vt 1.000000 1.000000
vt 1.000000 1.000000
vt 1.000000 1.000000
vt 1.000000 0.000000
vt 1.000000 1.000000
vt 1.000000 1.000000
vt 1.000000 0.000000
vt 1.000000 1.000000
vt 1.000000 0.000000
vt 1.000000 1.000000
vt 1.000000 0.000000
vt 1.000000 1.000000
vt 1.000000 1.000000
vt 1.000000 1.000000
vt 1.000000 0.000000
vt 1.000000 1.000000
vt 1.000000 1.000000
vt 1.000000 0.000000
vt 1.000000 0.000000
vt 1.000000 1.000000
vt 1.000000 0.000000
vt 1.000000 0.000000
vt 1.000000 0.000000
vt 1.000000 1.000000
vt 1.000000 0.000000
vt 1.000000 1.000000
vt 1.000000 1.000000
vt 1.000000 1.000000
vt 1.000000 0.000000
vt 1.000000 1.000000
vt 1.000000 1.000000
vt 1.000000 1.000000
vt 1.000000 0.000000
vt 1.000000 1.000000
vt 1.000000 0.000000
vt 1.000000 0.000000
vt 1.000000 1.000000
vt 1.000000 1.000000
vt 1.000000 1.000000
vt 1.000000 1.000000
vt 1.000000 0.000000
vt 1.000000 1.000000
vt 1.000000 1.000000
vt 1.000000 0.000000
vt 1.000000 1.000000
vt 1.000000 1.000000
vt 1.000000 1.000000
vt 1.000000 0.000000
vt 1.000000 0.000000
vt 1.000000 1.000000
vt 1.000000 0.000000
vt 1.000000 1.000000
vt 1.000000 0.000000
vt 1.000000 1.000000
vt 1.000000 0.000000
vt 1.000000 1.000000
vt 1.000000 0.000000
vt 1.000000 1.000000
vt 1.000000 0.000000
vt 1.000000 1.000000
vt 1.000000 0.000000
vn 0.0464 0.4709 0.8810
vn 0.0865 0.8786 -0.4696
vn 0.0624 0.6332 0.7715
vn 0.0759 0.7708 -0.6326
vn 0.0759 0.7708 0.6326
vn 0.0624 0.6332 -0.7715
vn 0.0865 0.8786 0.4696
vn 0.0464 0.4709 -0.8810
vn 0.0938 0.9527 0.2890
vn 0.0286 0.2902 -0.9565
vn 0.0975 0.9904 0.0975
vn 0.0097 0.0980 0.9951
vn 0.0097 0.0980 -0.9951
vn 0.0975 0.9904 -0.0976
vn 0.0286 0.2902 0.9565
vn 0.0938 0.9527 -0.2890
vn 0.0846 0.2790 0.9565
vn 0.2779 0.9161 -0.2890
vn 0.1374 0.4528 0.8810
vn 0.2563 0.8448 -0.4696
vn 0.1847 0.6088 0.7715
vn 0.2248 0.7412 -0.6326
vn 0.2248 0.7412 0.6326
vn 0.1847 0.6088 -0.7715
vn 0.2563 0.8448 0.4696
vn 0.1374 0.4528 -0.8810
vn 0.2779 0.9161 0.2890
vn 0.0846 0.2790 -0.9565
vn 0.2889 0.9524 0.0975
vn 0.0286 0.0942 0.9951
vn 0.0286 0.0942 -0.9951
vn 0.2889 0.9524 -0.0976
vn 0.4162 0.7786 0.4696
vn 0.2231 0.4173 -0.8810
vn 0.4513 0.8443 0.2890
vn 0.1374 0.2571 -0.9565
vn 0.4691 0.8777 0.0975
vn 0.0464 0.0869 0.9951
vn 0.0464 0.0869 -0.9951
vn 0.4691 0.8777 -0.0975
vn 0.1374 0.2571 0.9565
vn 0.4513 0.8443 -0.2890
vn 0.2231 0.4173 0.8810
vn 0.4162 0.7786 -0.4696
vn 0.2999 0.5611 0.7715
vn 0.3651 0.6831 -0.6326
vn 0.3651 0.6831 0.6326
vn 0.2999 0.5611 -0.7715
vn 0.2999 -0.5611 -0.7715
vn 0.4162 -0.7786 0.4696
vn 0.2231 -0.4173 -0.8810
vn 0.4513 -0.8443 0.2890
vn 0.1374 -0.2571 -0.9565
vn 0.4691 -0.8777 0.0976
vn 0.0464 -0.0869 0.9951
vn 0.0464 -0.0869 -0.9951
vn 0.4691 -0.8777 -0.0976
vn 0.1374 -0.2571 0.9565
vn 0.4513 -0.8443 -0.2890
vn 0.2231 -0.4173 0.8810
vn 0.4162 -0.7786 -0.4696
vn 0.2999 -0.5611 0.7715
vn 0.3651 -0.6831 -0.6326
vn 0.3651 -0.6831 0.6326
vn 0.0846 -0.2790 0.9565
vn 0.2779 -0.9161 -0.2890
vn 0.1374 -0.4528 0.8810
vn 0.2563 -0.8448 -0.4696
vn 0.1847 -0.6088 0.7715
vn 0.2248 -0.7412 -0.6326
vn 0.2248 -0.7412 0.6326
vn 0.1847 -0.6088 -0.7715
vn 0.2563 -0.8448 0.4696
vn 0.1374 -0.4528 -0.8810
vn 0.2779 -0.9161 0.2890
vn 0.0846 -0.2790 -0.9565
vn 0.2889 -0.9524 0.0976
vn 0.0286 -0.0942 0.9951
vn 0.0286 -0.0942 -0.9951
vn 0.2889 -0.9524 -0.0976
vn 0.0865 -0.8786 0.4696
vn 0.0464 -0.4709 -0.8810
vn 0.0938 -0.9527 0.2890
vn 0.0286 -0.2902 -0.9565
vn 0.0975 -0.9904 0.0976
vn 0.0097 -0.0980 0.9951
vn 0.0097 -0.0980 -0.9951
vn 0.0975 -0.9904 -0.0976
vn 0.0286 -0.2902 0.9565
vn 0.0938 -0.9527 -0.2890
vn 0.0464 -0.4709 0.8810
vn 0.0865 -0.8786 -0.4696
vn 0.0624 -0.6332 0.7715
vn 0.0759 -0.7708 -0.6326
vn 0.0759 -0.7708 0.6326
vn 0.0624 -0.6332 -0.7715
vn -0.0938 -0.9527 -0.2890
vn -0.0464 -0.4709 0.8810
vn -0.0865 -0.8786 -0.4696
vn -0.0624 -0.6332 0.7715
vn -0.0759 -0.7708 -0.6326
vn -0.0759 -0.7708 0.6326
vn -0.0624 -0.6332 -0.7715
vn -0.0865 -0.8786 0.4696
vn -0.0464 -0.4709 -0.8810
vn -0.0938 -0.9527 0.2890
vn -0.0286 -0.2902 -0.9565
vn -0.0975 -0.9904 0.0976
vn -0.0097 -0.0980 0.9951
vn -0.0097 -0.0980 -0.9951
vn -0.0975 -0.9904 -0.0976
vn -0.0286 -0.2902 0.9565
vn -0.1374 -0.4528 -0.8810
vn -0.2779 -0.9161 0.2890
vn -0.0846 -0.2790 -0.9565
vn -0.2889 -0.9524 0.0976
vn -0.0286 -0.0942 0.9951
vn -0.0286 -0.0942 -0.9951
vn -0.2889 -0.9524 -0.0976
vn -0.0846 -0.2790 0.9565
vn -0.2779 -0.9161 -0.2890
vn -0.1374 -0.4528 0.8810
vn -0.2563 -0.8448 -0.4696
vn -0.1847 -0.6088 0.7715
vn -0.2248 -0.7412 -0.6326
vn -0.2248 -0.7412 0.6326
vn -0.1847 -0.6088 -0.7715
vn -0.2563 -0.8448 0.4696
vn -0.4162 -0.7786 -0.4696
vn -0.2999 -0.5611 0.7715
vn -0.3651 -0.6831 -0.6326
vn -0.3651 -0.6831 0.6326
vn -0.2999 -0.5611 -0.7715
vn -0.4162 -0.7786 0.4696
vn -0.2230 -0.4173 -0.8810
vn -0.4513 -0.8443 0.2890
vn -0.1374 -0.2571 -0.9565
vn -0.4691 -0.8777 0.0976
vn -0.0464 -0.0869 0.9951
vn -0.0464 -0.0869 -0.9951
vn -0.4691 -0.8777 -0.0976
vn -0.1374 -0.2571 0.9565
vn -0.4513 -0.8443 -0.2890
vn -0.2230 -0.4173 0.8810
vn -0.1850 -0.2254 -0.9565
vn -0.6314 -0.7693 0.0976
vn -0.0625 -0.0761 0.9951
vn -0.0625 -0.0761 -0.9951
vn -0.6314 -0.7693 -0.0976
vn -0.1850 -0.2254 0.9565
vn -0.6073 -0.7400 -0.2890
vn -0.3002 -0.3658 0.8810
vn -0.5601 -0.6825 -0.4696
vn -0.4036 -0.4918 0.7715
vn -0.4913 -0.5987 -0.6326
vn -0.4913 -0.5987 0.6326
vn -0.4036 -0.4918 -0.7715
vn -0.5601 -0.6825 0.4696
vn -0.3002 -0.3658 -0.8810
vn -0.6073 -0.7400 0.2890
vn -0.4918 -0.4036 0.7715
vn -0.5987 -0.4913 -0.6326
vn -0.5987 -0.4913 0.6326
vn -0.4918 -0.4036 -0.7715
vn -0.6825 -0.5601 0.4696
vn -0.3658 -0.3002 -0.8810
vn -0.7400 -0.6073 0.2890
vn -0.2254 -0.1850 -0.9565
vn -0.7693 -0.6314 0.0976
vn -0.0761 -0.0625 0.9951
vn -0.0761 -0.0625 -0.9951
vn -0.7693 -0.6314 -0.0976
vn -0.2254 -0.1850 0.9565
vn -0.7400 -0.6073 -0.2890
vn -0.3658 -0.3002 0.8810
vn -0.6825 -0.5601 -0.4696
vn -0.8777 -0.4691 0.0976
vn -0.0869 -0.0464 0.9951
vn -0.0869 -0.0464 -0.9951
vn -0.8777 -0.4691 -0.0976
vn -0.2571 -0.1374 0.9565
vn -0.8443 -0.4513 -0.2890
vn -0.4173 -0.2230 0.8810
vn -0.7786 -0.4162 -0.4696
vn -0.5611 -0.2999 0.7715
vn -0.6831 -0.3651 -0.6326
vn -0.6831 -0.3651 0.6326
vn -0.5611 -0.2999 -0.7715
vn -0.7786 -0.4162 0.4696
vn -0.4173 -0.2230 -0.8810
vn -0.8443 -0.4513 0.2890
vn -0.2571 -0.1374 -0.9566
vn -0.7412 -0.2248 -0.6326
vn -0.7412 -0.2248 0.6326
vn -0.6088 -0.1847 -0.7715
vn -0.8448 -0.2563 0.4696
vn -0.4528 -0.1374 -0.8810
vn -0.9161 -0.2779 0.2890
vn -0.2790 -0.0846 -0.9565
vn -0.9524 -0.2889 0.0976
vn -0.0942 -0.0286 0.9951
vn -0.0942 -0.0286 -0.9951
vn -0.9524 -0.2889 -0.0976
vn -0.2790 -0.0846 0.9565
vn -0.9161 -0.2779 -0.2890
vn -0.4528 -0.1374 0.8810
vn -0.8448 -0.2563 -0.4696
vn -0.6088 -0.1847 0.7715
vn -0.0980 -0.0097 0.9951
vn -0.0980 -0.0097 -0.9951
vn -0.9904 -0.0975 -0.0976
vn -0.2902 -0.0286 0.9565
vn -0.9527 -0.0938 -0.2890
vn -0.4709 -0.0464 0.8810
vn -0.8786 -0.0865 -0.4696
vn -0.6332 -0.0624 0.7715
vn -0.7708 -0.0759 -0.6326
vn -0.7708 -0.0759 0.6326
vn -0.6332 -0.0624 -0.7715
vn -0.8786 -0.0865 0.4696
vn -0.4709 -0.0464 -0.8810
vn -0.9527 -0.0938 0.2890
vn -0.2902 -0.0286 -0.9565
vn -0.9904 -0.0975 0.0976
vn -0.7708 0.0759 0.6326
vn -0.6332 0.0624 -0.7715
vn -0.8786 0.0865 0.4696
vn -0.4709 0.0464 -0.8810
vn -0.9527 0.0938 0.2890
vn -0.2902 0.0286 -0.9565
vn -0.9904 0.0976 0.0976
vn -0.0980 0.0097 0.9951
vn -0.0980 0.0097 -0.9951
vn -0.9904 0.0975 -0.0976
vn -0.2902 0.0286 0.9565
vn -0.9527 0.0938 -0.2890
vn -0.4709 0.0464 0.8810
vn -0.8786 0.0865 -0.4696
vn -0.6332 0.0624 0.7715
vn -0.7708 0.0759 -0.6326
vn -0.9524 0.2889 -0.0976
vn -0.2790 0.0846 0.9565
vn -0.9161 0.2779 -0.2890
vn -0.4528 0.1374 0.8810
vn -0.8448 0.2563 -0.4696
vn -0.6088 0.1847 0.7715
vn -0.7412 0.2248 -0.6326
vn -0.7412 0.2248 0.6326
vn -0.6088 0.1847 -0.7715
vn -0.8448 0.2563 0.4696
vn -0.4528 0.1374 -0.8810
vn -0.9161 0.2779 0.2890
vn -0.2790 0.0846 -0.9565
vn -0.9524 0.2889 0.0976
vn -0.0942 0.0286 0.9951
vn -0.0942 0.0286 -0.9951
vn -0.5611 0.2999 -0.7715
vn -0.7786 0.4162 0.4696
vn -0.4173 0.2231 -0.8810
vn -0.8443 0.4513 0.2890
vn -0.2571 0.1374 -0.9565
vn -0.8777 0.4691 0.0976
vn -0.0869 0.0464 0.9951
vn -0.0869 0.0464 -0.9951
vn -0.8777 0.4691 -0.0976
vn -0.2571 0.1374 0.9565
vn -0.8443 0.4513 -0.2890
vn -0.4173 0.2230 0.8810
vn -0.7786 0.4162 -0.4696
vn -0.5611 0.2999 0.7715
vn -0.6831 0.3651 -0.6326
vn -0.6831 0.3651 0.6326
vn -0.7400 0.6073 -0.2890
vn -0.3658 0.3002 0.8810
vn -0.6825 0.5601 -0.4696
vn -0.4918 0.4036 0.7715
vn -0.5987 0.4913 -0.6326
vn -0.5987 0.4913 0.6326
vn -0.4918 0.4036 -0.7715
vn -0.6825 0.5601 0.4696
vn -0.3658 0.3002 -0.8810
vn -0.7400 0.6073 0.2890
vn -0.2254 0.1850 -0.9565
vn -0.7693 0.6314 0.0976
vn -0.0761 0.0625 0.9951
vn -0.0761 0.0625 -0.9951
vn -0.7693 0.6314 -0.0976
vn -0.2254 0.1850 0.9565
vn -0.3002 0.3658 -0.8810
vn -0.6073 0.7400 0.2890
vn -0.1850 0.2254 -0.9565
vn -0.6314 0.7693 0.0976
vn -0.0625 0.0761 0.9951
vn -0.0625 0.0761 -0.9951
vn -0.6314 0.7693 -0.0976
vn -0.1850 0.2254 0.9565
vn -0.6073 0.7400 -0.2890
vn -0.3002 0.3658 0.8810
vn -0.5601 0.6825 -0.4696
vn -0.4036 0.4918 0.7715
vn -0.4913 0.5987 -0.6326
vn -0.4913 0.5987 0.6326
vn -0.4036 0.4918 -0.7715
vn -0.5601 0.6825 0.4696
vn -0.2231 0.4173 0.8810
vn -0.4162 0.7786 -0.4696
vn -0.2999 0.5611 0.7715
vn -0.3651 0.6831 -0.6326
vn -0.3651 0.6831 0.6326
vn -0.2999 0.5611 -0.7715
vn -0.4162 0.7786 0.4696
vn -0.2230 0.4173 -0.8810
vn -0.4513 0.8443 0.2890
vn -0.1374 0.2571 -0.9565
vn -0.4691 0.8777 0.0976
vn -0.0464 0.0869 0.9951
vn -0.0464 0.0869 -0.9951
vn -0.4691 0.8777 -0.0976
vn -0.1374 0.2571 0.9565
vn -0.4513 0.8443 -0.2890
vn -0.2779 0.9161 0.2890
vn -0.0846 0.2790 -0.9565
vn -0.2889 0.9524 0.0976
vn -0.0286 0.0942 0.9951
vn -0.0286 0.0942 -0.9951
vn -0.2889 0.9524 -0.0976
vn -0.0846 0.2790 0.9565
vn -0.2779 0.9161 -0.2890
vn -0.1374 0.4528 0.8810
vn -0.2563 0.8448 -0.4696
vn -0.1847 0.6088 0.7715
vn -0.2248 0.7412 -0.6326
vn -0.2248 0.7412 0.6326
vn -0.1847 0.6088 -0.7715
vn -0.2563 0.8448 0.4696
vn -0.1374 0.4528 -0.8810
vn -0.0865 0.8786 -0.4696
vn -0.0624 0.6332 0.7715
vn -0.0759 0.7708 -0.6326
vn -0.0759 0.7708 0.6326
vn -0.0624 0.6332 -0.7715
vn -0.0865 0.8786 0.4696
vn -0.0464 0.4709 -0.8810
vn -0.0938 0.9527 0.2890
vn -0.0286 0.2902 -0.9565
vn -0.0976 0.9904 0.0975
vn -0.0097 0.0980 0.9951
vn -0.0097 0.0980 -0.9951
vn -0.0976 0.9904 -0.0976
vn -0.0286 0.2902 0.9565
vn -0.0938 0.9527 -0.2890
vn -0.0464 0.4709 0.8810
vn 0.8315 -0.5556 0.0000
vn 0.8315 0.5556 0.0000
vn 0.0975 0.9904 0.0976
vn 0.0975 0.9904 -0.0975
vn 0.2889 0.9524 0.0976
vn 0.2889 0.9524 -0.0975
vn 0.2230 0.4173 -0.8810
vn -0.2231 -0.4173 -0.8810
vn -0.2231 -0.4173 0.8810
vn -0.2571 -0.1374 -0.9565
vn -0.9904 0.0975 0.0976
vn -0.9904 0.0976 -0.0976
vn -0.2571 0.1374 0.9566
vn -0.4173 0.2231 0.8810
vn -0.2230 0.4173 0.8810
vn -0.2231 0.4173 -0.8810
vn -0.0976 0.9904 0.0976
vn -0.0976 0.9904 -0.0975
usemtl None
s off
f 3/1/1 12/2/1 13/3/1
f 343/4/2 21/5/2 344/6/2
f 3/7/3 14/8/3 4/9/3
f 344/10/4 22/11/4 345/12/4
f 4/13/5 15/14/5 5/15/5
f 345/16/6 23/17/6 10/18/6
f 5/19/7 16/20/7 6/21/7
f 10/22/8 24/23/8 346/24/8
f 6/25/9 17/26/9 7/27/9
f 346/28/10 25/29/10 347/30/10
f 7/31/11 18/32/11 8/33/11
f 1/34/12 162/35/12 11/36/12
f 71/37/13 347/38/13 25/39/13
f 8/40/14 19/41/14 9/42/14
f 1/43/15 12/44/15 2/45/15
f 9/46/16 20/47/16 343/48/16
f 11/49/17 27/50/17 12/51/17
f 20/52/18 34/53/18 35/54/18
f 12/55/19 28/56/19 13/57/19
f 20/58/20 36/59/20 21/60/20
f 13/61/21 29/62/21 14/63/21
f 22/64/22 36/65/22 37/66/22
f 14/67/23 30/68/23 15/69/23
f 22/70/24 38/71/24 23/72/24
f 15/73/25 31/74/25 16/75/25
f 23/76/26 39/77/26 24/78/26
f 16/79/27 32/80/27 17/81/27
f 24/82/28 40/83/28 25/84/28
f 17/85/29 33/86/29 18/87/29
f 11/88/30 162/35/30 26/89/30
f 71/37/31 25/90/31 40/91/31
f 19/92/32 33/93/32 34/94/32
f 30/95/33 46/96/33 31/97/33
f 38/98/34 54/99/34 39/100/34
f 32/101/35 46/102/35 47/103/35
f 39/104/36 55/105/36 40/106/36
f 32/107/37 48/108/37 33/109/37
f 26/110/38 162/35/38 41/111/38
f 71/37/39 40/112/39 55/113/39
f 33/114/40 49/115/40 34/116/40
f 26/117/41 42/118/41 27/119/41
f 34/120/42 50/121/42 35/122/42
f 27/123/43 43/124/43 28/125/43
f 36/126/44 50/127/44 51/128/44
f 28/129/45 44/130/45 29/131/45
f 37/132/46 51/133/46 52/134/46
f 29/135/47 45/136/47 30/137/47
f 37/138/48 53/139/48 38/140/48
f 68/141/49 83/142/49 84/143/49
f 60/144/50 77/145/50 61/146/50
f 68/147/51 85/148/51 69/149/51
f 62/150/52 77/151/52 78/152/52
f 69/153/53 86/154/53 70/155/53
f 62/156/54 79/157/54 63/158/54
f 56/159/55 162/35/55 72/160/55
f 71/37/56 70/161/56 86/162/56
f 63/163/57 80/164/57 64/165/57
f 56/166/58 73/167/58 57/168/58
f 64/169/59 81/170/59 65/171/59
f 58/172/60 73/173/60 74/174/60
f 66/175/61 81/176/61 82/177/61
f 58/178/62 75/179/62 59/180/62
f 66/181/63 83/182/63 67/183/63
f 59/184/64 76/185/64 60/186/64
f 72/187/65 88/188/65 73/189/65
f 80/190/66 96/191/66 81/192/66
f 73/193/67 89/194/67 74/195/67
f 82/196/68 96/197/68 97/198/68
f 74/199/69 90/200/69 75/201/69
f 82/202/70 98/203/70 83/204/70
f 75/205/71 91/206/71 76/207/71
f 83/208/72 99/209/72 84/210/72
f 76/211/73 92/212/73 77/213/73
f 84/214/74 100/215/74 85/216/74
f 78/217/75 92/218/75 93/219/75
f 86/220/76 100/221/76 101/222/76
f 78/223/77 94/224/77 79/225/77
f 72/226/78 162/35/78 87/227/78
f 71/37/79 86/228/79 101/229/79
f 79/230/80 95/231/80 80/232/80
f 91/233/81 107/234/81 92/235/81
f 99/236/82 115/237/82 100/238/82
f 93/239/83 107/240/83 108/241/83
f 101/242/84 115/243/84 116/244/84
f 93/245/85 109/246/85 94/247/85
f 87/248/86 162/35/86 102/249/86
f 71/37/87 101/250/87 116/251/87
f 94/252/88 110/253/88 95/254/88
f 87/255/89 103/256/89 88/257/89
f 95/258/90 111/259/90 96/260/90
f 89/261/91 103/262/91 104/263/91
f 97/264/92 111/265/92 112/266/92
f 90/267/93 104/268/93 105/269/93
f 97/270/94 113/271/94 98/272/94
f 90/273/95 106/274/95 91/275/95
f 99/276/96 113/277/96 114/278/96
f 110/279/97 126/280/97 111/281/97
f 103/282/98 119/283/98 104/284/98
f 112/285/99 126/286/99 127/287/99
f 105/288/100 119/289/100 120/290/100
f 112/291/101 128/292/101 113/293/101
f 106/294/102 120/295/102 121/296/102
f 113/297/103 129/298/103 114/299/103
f 106/300/104 122/301/104 107/302/104
f 114/303/105 130/304/105 115/305/105
f 108/306/106 122/307/106 123/308/106
f 115/309/107 131/310/107 116/311/107
f 108/312/108 124/313/108 109/314/108
f 102/315/109 162/35/109 117/316/109
f 71/37/110 116/317/110 131/318/110
f 109/319/111 125/320/111 110/321/111
f 102/322/112 118/323/112 103/324/112
f 130/325/113 144/326/113 145/327/113
f 123/328/114 137/329/114 138/330/114
f 131/331/115 145/332/115 146/333/115
f 123/334/116 139/335/116 124/336/116
f 117/337/117 162/35/117 132/338/117
f 71/37/118 131/339/118 146/340/118
f 125/341/119 139/342/119 140/343/119
f 117/344/120 133/345/120 118/346/120
f 125/347/121 141/348/121 126/349/121
f 118/350/122 134/351/122 119/352/122
f 127/353/123 141/354/123 142/355/123
f 120/356/124 134/357/124 135/358/124
f 127/359/125 143/360/125 128/361/125
f 121/362/126 135/363/126 136/364/126
f 128/365/127 144/366/127 129/367/127
f 121/368/128 137/369/128 122/370/128
f 142/371/129 156/372/129 157/373/129
f 134/374/130 150/375/130 135/376/130
f 142/377/131 158/378/131 143/379/131
f 136/380/132 150/381/132 151/382/132
f 144/383/133 158/384/133 159/385/133
f 136/386/134 152/387/134 137/388/134
f 144/389/135 160/390/135 145/391/135
f 138/392/136 152/393/136 153/394/136
f 146/395/137 160/396/137 161/397/137
f 138/398/138 154/399/138 139/400/138
f 132/401/139 162/35/139 147/402/139
f 71/37/140 146/403/140 161/404/140
f 139/405/141 155/406/141 140/407/141
f 132/408/142 148/409/142 133/410/142
f 140/411/143 156/412/143 141/413/143
f 133/414/144 149/415/144 134/416/144
f 160/417/145 177/418/145 161/419/145
f 154/420/146 169/421/146 170/422/146
f 147/423/147 162/35/147 163/424/147
f 71/37/148 161/425/148 177/426/148
f 154/427/149 171/428/149 155/429/149
f 147/430/150 164/431/150 148/432/150
f 155/433/151 172/434/151 156/435/151
f 148/436/152 165/437/152 149/438/152
f 157/439/153 172/440/153 173/441/153
f 150/442/154 165/443/154 166/444/154
f 157/445/155 174/446/155 158/447/155
f 151/448/156 166/449/156 167/450/156
f 158/451/157 175/452/157 159/453/157
f 151/454/158 168/455/158 152/456/158
f 159/457/159 176/458/159 160/459/159
f 153/460/160 168/461/160 169/462/160
f 166/463/161 180/464/161 181/465/161
f 173/466/162 189/467/162 174/468/162
f 167/469/163 181/470/163 182/471/163
f 174/472/164 190/473/164 175/474/164
f 167/475/165 183/476/165 168/477/165
f 176/478/166 190/479/166 191/480/166
f 169/481/167 183/482/167 184/483/167
f 176/484/168 192/485/168 177/486/168
f 169/487/169 185/488/169 170/489/169
f 163/490/170 162/35/170 178/491/170
f 71/37/171 177/492/171 192/493/171
f 170/494/172 186/495/172 171/496/172
f 163/497/173 179/498/173 164/499/173
f 171/500/174 187/501/174 172/502/174
f 164/503/175 180/504/175 165/505/175
f 173/506/176 187/507/176 188/508/176
f 184/509/177 200/510/177 185/511/177
f 178/512/178 162/35/178 193/513/178
f 71/37/179 192/514/179 207/515/179
f 185/516/180 201/517/180 186/518/180
f 178/519/181 194/520/181 179/521/181
f 186/522/182 202/523/182 187/524/182
f 179/525/183 195/526/183 180/527/183
f 188/528/184 202/529/184 203/530/184
f 181/531/185 195/532/185 196/533/185
f 189/534/186 203/535/186 204/536/186
f 182/537/187 196/538/187 197/539/187
f 189/540/188 205/541/188 190/542/188
f 182/543/189 198/544/189 183/545/189
f 191/546/190 205/547/190 206/548/190
f 184/549/191 198/550/191 199/551/191
f 192/552/192 206/553/192 207/554/192
f 203/555/193 219/556/193 204/557/193
f 197/558/194 211/559/194 212/560/194
f 204/561/195 220/562/195 205/563/195
f 197/564/196 213/565/196 198/566/196
f 206/567/197 220/568/197 221/569/197
f 199/570/198 213/571/198 214/572/198
f 206/573/199 222/574/199 207/575/199
f 199/576/200 215/577/200 200/578/200
f 193/579/201 162/35/201 208/580/201
f 71/37/202 207/581/202 222/582/202
f 200/583/203 216/584/203 201/585/203
f 194/586/204 208/580/204 209/587/204
f 201/588/205 217/589/205 202/590/205
f 194/591/206 210/592/206 195/593/206
f 203/594/207 217/595/207 218/596/207
f 196/597/208 210/598/208 211/599/208
f 208/600/209 162/35/209 223/601/209
f 71/37/210 222/602/210 237/603/210
f 216/604/211 230/605/211 231/606/211
f 209/607/212 223/601/212 224/608/212
f 216/609/213 232/610/213 217/611/213
f 209/612/214 225/613/214 210/614/214
f 218/615/215 232/616/215 233/617/215
f 211/618/216 225/619/216 226/620/216
f 218/621/217 234/622/217 219/623/217
f 211/624/218 227/625/218 212/626/218
f 220/627/219 234/628/219 235/629/219
f 212/630/220 228/631/220 213/632/220
f 221/633/221 235/634/221 236/635/221
f 214/636/222 228/637/222 229/638/222
f 221/639/223 237/640/223 222/641/223
f 214/642/224 230/643/224 215/644/224
f 227/645/225 241/646/225 242/647/225
f 234/648/226 250/649/226 235/650/226
f 227/651/227 243/652/227 228/653/227
f 236/654/228 250/655/228 251/656/228
f 229/657/229 243/658/229 244/659/229
f 236/660/230 252/661/230 237/662/230
f 229/663/231 245/664/231 230/665/231
f 223/666/232 162/35/232 238/667/232
f 71/37/233 237/668/233 252/669/233
f 231/670/234 245/671/234 246/672/234
f 224/673/235 238/667/235 239/674/235
f 231/675/236 247/676/236 232/677/236
f 224/678/237 240/679/237 225/680/237
f 233/681/238 247/682/238 248/683/238
f 226/684/239 240/685/239 241/686/239
f 233/687/240 249/688/240 234/689/240
f 245/690/241 261/691/241 246/692/241
f 238/693/242 254/694/242 239/695/242
f 246/696/243 262/697/243 247/698/243
f 239/699/244 255/700/244 240/701/244
f 248/702/245 262/703/245 263/704/245
f 241/705/246 255/706/246 256/707/246
f 248/708/247 264/709/247 249/710/247
f 241/711/248 257/712/248 242/713/248
f 249/714/249 265/715/249 250/716/249
f 242/717/250 258/718/250 243/719/250
f 251/720/251 265/721/251 266/722/251
f 244/723/252 258/724/252 259/725/252
f 251/726/253 267/727/253 252/728/253
f 244/729/254 260/730/254 245/731/254
f 238/732/255 162/35/255 253/733/255
f 71/37/256 252/734/256 267/735/256
f 264/736/257 280/737/257 265/738/257
f 257/739/258 273/740/258 258/741/258
f 266/742/259 280/743/259 281/744/259
f 259/745/260 273/746/260 274/747/260
f 266/748/261 282/749/261 267/750/261
f 259/751/262 275/752/262 260/753/262
f 253/754/263 162/35/263 268/755/263
f 71/37/264 267/756/264 282/757/264
f 261/758/265 275/759/265 276/760/265
f 253/761/266 269/762/266 254/763/266
f 261/764/267 277/765/267 262/766/267
f 255/767/268 269/768/268 270/769/268
f 263/770/269 277/771/269 278/772/269
f 256/773/270 270/774/270 271/775/270
f 263/776/271 279/777/271 264/778/271
f 257/779/272 271/780/272 272/781/272
f 276/782/273 292/783/273 277/784/273
f 269/785/274 285/786/274 270/787/274
f 278/788/275 292/789/275 293/790/275
f 270/791/276 286/792/276 271/793/276
f 278/794/277 294/795/277 279/796/277
f 272/797/278 286/798/278 287/799/278
f 279/800/279 295/801/279 280/802/279
f 272/803/280 288/804/280 273/805/280
f 280/806/281 296/807/281 281/808/281
f 274/809/282 288/810/282 289/811/282
f 281/812/283 297/813/283 282/814/283
f 274/815/284 290/816/284 275/817/284
f 268/818/285 162/35/285 283/819/285
f 71/37/286 282/820/286 297/821/286
f 276/822/287 290/823/287 291/824/287
f 268/825/288 284/826/288 269/827/288
f 295/828/289 311/829/289 296/830/289
f 289/831/290 303/832/290 304/833/290
f 296/834/291 312/835/291 297/836/291
f 290/837/292 304/838/292 305/839/292
f 283/840/293 162/35/293 298/841/293
f 71/37/294 297/842/294 312/843/294
f 290/844/295 306/845/295 291/846/295
f 283/847/296 299/848/296 284/849/296
f 291/850/297 307/851/297 292/852/297
f 284/853/298 300/854/298 285/855/298
f 293/856/299 307/857/299 308/858/299
f 285/859/300 301/860/300 286/861/300
f 293/862/301 309/863/301 294/864/301
f 287/865/302 301/866/302 302/867/302
f 295/868/303 309/869/303 310/870/303
f 287/871/304 303/872/304 288/873/304
f 300/874/305 314/875/305 315/876/305
f 308/877/306 322/878/306 323/879/306
f 301/880/307 315/881/307 316/882/307
f 308/883/308 324/884/308 309/885/308
f 302/886/309 316/887/309 317/888/309
f 309/889/310 325/890/310 310/891/310
f 302/892/311 318/893/311 303/894/311
f 310/895/312 326/896/312 311/897/312
f 304/898/313 318/899/313 319/900/313
f 311/901/314 327/902/314 312/903/314
f 304/904/315 320/905/315 305/906/315
f 298/907/316 162/35/316 313/908/316
f 71/37/317 312/909/317 327/910/317
f 305/911/318 321/912/318 306/913/318
f 299/914/319 313/908/319 314/915/319
f 306/916/320 322/917/320 307/918/320
f 319/919/321 333/920/321 334/921/321
f 327/922/322 341/923/322 342/924/322
f 319/925/323 335/926/323 320/927/323
f 313/928/324 162/35/324 328/929/324
f 71/37/325 327/930/325 342/931/325
f 320/932/326 336/933/326 321/934/326
f 313/935/327 329/936/327 314/937/327
f 321/938/328 337/939/328 322/940/328
f 314/941/329 330/942/329 315/943/329
f 323/944/330 337/945/330 338/946/330
f 315/947/331 331/948/331 316/949/331
f 323/950/332 339/951/332 324/952/332
f 317/953/333 331/954/333 332/955/333
f 324/956/334 340/957/334 325/958/334
f 317/959/335 333/960/335 318/961/335
f 325/962/336 341/963/336 326/964/336
f 338/965/337 343/966/337 344/967/337
f 331/968/338 3/969/338 4/970/338
f 338/971/339 345/972/339 339/973/339
f 332/974/340 4/975/340 5/976/340
f 339/977/341 10/978/341 340/979/341
f 333/980/342 5/981/342 6/982/342
f 340/983/343 346/984/343 341/985/343
f 334/986/344 6/987/344 7/988/344
f 341/989/345 347/990/345 342/991/345
f 335/992/346 7/993/346 8/994/346
f 328/995/347 162/35/347 1/996/347
f 71/37/348 342/997/348 347/998/348
f 335/999/349 9/1000/349 336/1001/349
f 329/1002/350 1/996/350 2/1003/350
f 336/1004/351 343/1005/351 337/1006/351
f 330/1007/352 2/1008/352 3/1009/352
f 162/35/353 53/1010/353 49/1011/353
f 57/1012/354 61/1013/354 65/1014/354
f 3/1/1 2/1015/1 12/2/1
f 343/4/2 20/1016/2 21/5/2
f 3/7/3 13/1017/3 14/8/3
f 344/10/4 21/1018/4 22/11/4
f 4/13/5 14/1019/5 15/14/5
f 345/16/6 22/1020/6 23/17/6
f 5/19/7 15/1021/7 16/20/7
f 10/22/8 23/1022/8 24/23/8
f 6/25/9 16/1023/9 17/26/9
f 346/28/10 24/1024/10 25/29/10
f 7/31/355 17/1025/355 18/32/355
f 8/40/356 18/1026/356 19/41/356
f 1/43/15 11/36/15 12/44/15
f 9/46/16 19/1027/16 20/47/16
f 11/49/17 26/89/17 27/50/17
f 20/52/18 19/1028/18 34/53/18
f 12/55/19 27/1029/19 28/56/19
f 20/58/20 35/1030/20 36/59/20
f 13/61/21 28/1031/21 29/62/21
f 22/64/22 21/1032/22 36/65/22
f 14/67/23 29/1033/23 30/68/23
f 22/70/24 37/1034/24 38/71/24
f 15/73/25 30/1035/25 31/74/25
f 23/76/26 38/1036/26 39/77/26
f 16/79/27 31/1037/27 32/80/27
f 24/82/28 39/1038/28 40/83/28
f 17/85/357 32/1039/357 33/86/357
f 19/92/358 18/1040/358 33/93/358
f 30/95/33 45/1041/33 46/96/33
f 38/98/359 53/1010/359 54/99/359
f 32/101/35 31/1042/35 46/102/35
f 39/104/36 54/1043/36 55/105/36
f 32/107/37 47/1044/37 48/108/37
f 33/114/40 48/1045/40 49/115/40
f 26/117/41 41/111/41 42/118/41
f 34/120/42 49/1011/42 50/121/42
f 27/123/43 42/1046/43 43/124/43
f 36/126/44 35/1047/44 50/127/44
f 28/129/45 43/1048/45 44/130/45
f 37/132/46 36/1049/46 51/133/46
f 29/135/47 44/1050/47 45/136/47
f 37/138/48 52/1051/48 53/139/48
f 68/141/49 67/1052/49 83/142/49
f 60/144/50 76/1053/50 77/145/50
f 68/147/51 84/1054/51 85/148/51
f 62/150/52 61/1013/52 77/151/52
f 69/153/53 85/1055/53 86/154/53
f 62/156/54 78/1056/54 79/157/54
f 63/163/57 79/1057/57 80/164/57
f 56/166/58 72/160/58 73/167/58
f 64/169/59 80/1058/59 81/170/59
f 58/172/60 57/1012/60 73/173/60
f 66/175/61 65/1014/61 81/176/61
f 58/178/62 74/1059/62 75/179/62
f 66/181/63 82/1060/63 83/182/63
f 59/184/64 75/1061/64 76/185/64
f 72/187/65 87/227/65 88/188/65
f 80/190/66 95/1062/66 96/191/66
f 73/193/67 88/1063/67 89/194/67
f 82/196/68 81/1064/68 96/197/68
f 74/199/69 89/1065/69 90/200/69
f 82/202/70 97/1066/70 98/203/70
f 75/205/71 90/1067/71 91/206/71
f 83/208/72 98/1068/72 99/209/72
f 76/211/73 91/1069/73 92/212/73
f 84/214/74 99/1070/74 100/215/74
f 78/217/75 77/1071/75 92/218/75
f 86/220/76 85/1072/76 100/221/76
f 78/223/77 93/1073/77 94/224/77
f 79/230/80 94/1074/80 95/231/80
f 91/233/81 106/1075/81 107/234/81
f 99/236/82 114/1076/82 115/237/82
f 93/239/83 92/1077/83 107/240/83
f 101/242/84 100/1078/84 115/243/84
f 93/245/85 108/1079/85 109/246/85
f 94/252/88 109/1080/88 110/253/88
f 87/255/89 102/249/89 103/256/89
f 95/258/90 110/1081/90 111/259/90
f 89/261/91 88/1082/91 103/262/91
f 97/264/92 96/1083/92 111/265/92
f 90/267/93 89/1084/93 104/268/93
f 97/270/94 112/1085/94 113/271/94
f 90/273/95 105/1086/95 106/274/95
f 99/276/96 98/1087/96 113/277/96
f 110/279/97 125/1088/97 126/280/97
f 103/282/98 118/1089/98 119/283/98
f 112/285/99 111/1090/99 126/286/99
f 105/288/100 104/1091/100 119/289/100
f 112/291/101 127/1092/101 128/292/101
f 106/294/102 105/1093/102 120/295/102
f 113/297/103 128/1094/103 129/298/103
f 106/300/104 121/1095/104 122/301/104
f 114/303/105 129/1096/105 130/304/105
f 108/306/106 107/1097/106 122/307/106
f 115/309/107 130/1098/107 131/310/107
f 108/312/108 123/1099/108 124/313/108
f 109/319/111 124/1100/111 125/320/111
f 102/322/112 117/316/112 118/323/112
f 130/325/113 129/1101/113 144/326/113
f 123/328/114 122/1102/114 137/329/114
f 131/331/115 130/1103/115 145/332/115
f 123/334/116 138/1104/116 139/335/116
f 125/341/119 124/1105/119 139/342/119
f 117/344/120 132/338/120 133/345/120
f 125/347/121 140/1106/121 141/348/121
f 118/350/122 133/1107/122 134/351/122
f 127/353/123 126/1108/123 141/354/123
f 120/356/124 119/1109/124 134/357/124
f 127/359/125 142/1110/125 143/360/125
f 121/362/126 120/1111/126 135/363/126
f 128/365/127 143/1112/127 144/366/127
f 121/368/128 136/1113/128 137/369/128
f 142/371/129 141/1114/129 156/372/129
f 134/374/130 149/1115/130 150/375/130
f 142/377/131 157/1116/131 158/378/131
f 136/380/132 135/1117/132 150/381/132
f 144/383/133 143/1118/133 158/384/133
f 136/386/134 151/1119/134 152/387/134
f 144/389/360 159/1120/360 160/390/360
f 138/392/136 137/1121/136 152/393/136
f 146/395/137 145/1122/137 160/396/137
f 138/398/138 153/1123/138 154/399/138
f 139/405/141 154/1124/141 155/406/141
f 132/408/142 147/402/142 148/409/142
f 140/411/143 155/1125/143 156/412/143
f 133/414/361 148/1126/361 149/415/361
f 160/417/145 176/1127/145 177/418/145
f 154/420/146 153/1128/146 169/421/146
f 154/427/149 170/1129/149 171/428/149
f 147/430/150 163/424/150 164/431/150
f 155/433/151 171/1130/151 172/434/151
f 148/436/152 164/1131/152 165/437/152
f 157/439/153 156/1132/153 172/440/153
f 150/442/154 149/1133/154 165/443/154
f 157/445/155 173/1134/155 174/446/155
f 151/448/156 150/1135/156 166/449/156
f 158/451/157 174/1136/157 175/452/157
f 151/454/158 167/1137/158 168/455/158
f 159/457/159 175/1138/159 176/458/159
f 153/460/160 152/1139/160 168/461/160
f 166/463/161 165/1140/161 180/464/161
f 173/466/162 188/1141/162 189/467/162
f 167/469/163 166/1142/163 181/470/163
f 174/472/164 189/1143/164 190/473/164
f 167/475/165 182/1144/165 183/476/165
f 176/478/166 175/1145/166 190/479/166
f 169/481/167 168/1146/167 183/482/167
f 176/484/168 191/1147/168 192/485/168
f 169/487/169 184/1148/169 185/488/169
f 170/494/172 185/1149/172 186/495/172
f 163/497/173 178/491/173 179/498/173
f 171/500/174 186/1150/174 187/501/174
f 164/503/175 179/1151/175 180/504/175
f 173/506/176 172/1152/176 187/507/176
f 184/509/177 199/1153/177 200/510/177
f 185/516/180 200/1154/180 201/517/180
f 178/519/181 193/513/181 194/520/181
f 186/522/182 201/1155/182 202/523/182
f 179/525/183 194/1156/183 195/526/183
f 188/528/184 187/1157/184 202/529/184
f 181/531/185 180/1158/185 195/532/185
f 189/534/186 188/1159/186 203/535/186
f 182/537/187 181/1160/187 196/538/187
f 189/540/188 204/1161/188 205/541/188
f 182/543/189 197/1162/189 198/544/189
f 191/546/190 190/1163/190 205/547/190
f 184/549/191 183/1164/191 198/550/191
f 192/552/362 191/1165/362 206/553/362
f 203/555/193 218/1166/193 219/556/193
f 197/558/194 196/1167/194 211/559/194
f 204/561/195 219/1168/195 220/562/195
f 197/564/196 212/1169/196 213/565/196
f 206/567/197 205/1170/197 220/568/197
f 199/570/198 198/1171/198 213/571/198
f 206/573/199 221/1172/199 222/574/199
f 199/576/200 214/1173/200 215/577/200
f 200/583/203 215/1174/203 216/584/203
f 194/586/204 193/1175/204 208/580/204
f 201/588/205 216/1176/205 217/589/205
f 194/591/206 209/1177/206 210/592/206
f 203/594/207 202/1178/207 217/595/207
f 196/597/208 195/1179/208 210/598/208
f 216/604/211 215/1180/211 230/605/211
f 209/607/212 208/1181/212 223/601/212
f 216/609/213 231/1182/213 232/610/213
f 209/612/214 224/1183/214 225/613/214
f 218/615/215 217/1184/215 232/616/215
f 211/618/216 210/1185/216 225/619/216
f 218/621/217 233/1186/217 234/622/217
f 211/624/218 226/1187/218 227/625/218
f 220/627/219 219/1188/219 234/628/219
f 212/630/220 227/1189/220 228/631/220
f 221/633/221 220/1190/221 235/634/221
f 214/636/222 213/1191/222 228/637/222
f 221/639/223 236/1192/223 237/640/223
f 214/642/224 229/1193/224 230/643/224
f 227/645/225 226/1194/225 241/646/225
f 234/648/226 249/1195/226 250/649/226
f 227/651/227 242/1196/227 243/652/227
f 236/654/228 235/1197/228 250/655/228
f 229/657/229 228/1198/229 243/658/229
f 236/660/230 251/1199/230 252/661/230
f 229/663/363 244/1200/363 245/664/363
f 231/670/364 230/1201/364 245/671/364
f 224/673/235 223/1202/235 238/667/235
f 231/675/236 246/1203/236 247/676/236
f 224/678/237 239/1204/237 240/679/237
f 233/681/238 232/1205/238 247/682/238
f 226/684/239 225/1206/239 240/685/239
f 233/687/240 248/1207/240 249/688/240
f 245/690/241 260/1208/241 261/691/241
f 238/693/242 253/733/242 254/694/242
f 246/696/243 261/1209/243 262/697/243
f 239/699/244 254/1210/244 255/700/244
f 248/702/245 247/1211/245 262/703/245
f 241/705/246 240/1212/246 255/706/246
f 248/708/247 263/1213/247 264/709/247
f 241/711/248 256/1214/248 257/712/248
f 249/714/249 264/1215/249 265/715/249
f 242/717/250 257/1216/250 258/718/250
f 251/720/251 250/1217/251 265/721/251
f 244/723/252 243/1218/252 258/724/252
f 251/726/253 266/1219/253 267/727/253
f 244/729/254 259/1220/254 260/730/254
f 264/736/257 279/1221/257 280/737/257
f 257/739/258 272/1222/258 273/740/258
f 266/742/259 265/1223/259 280/743/259
f 259/745/260 258/1224/260 273/746/260
f 266/748/261 281/1225/261 282/749/261
f 259/751/262 274/1226/262 275/752/262
f 261/758/265 260/1227/265 275/759/265
f 253/761/365 268/755/365 269/762/365
f 261/764/267 276/1228/267 277/765/267
f 255/767/366 254/1229/366 269/768/366
f 263/770/269 262/1230/269 277/771/269
f 256/773/270 255/1231/270 270/774/270
f 263/776/271 278/1232/271 279/777/271
f 257/779/272 256/1233/272 271/780/272
f 276/782/273 291/1234/273 292/783/273
f 269/785/274 284/1235/274 285/786/274
f 278/788/275 277/1236/275 292/789/275
f 270/791/276 285/1237/276 286/792/276
f 278/794/277 293/1238/277 294/795/277
f 272/797/278 271/1239/278 286/798/278
f 279/800/279 294/1240/279 295/801/279
f 272/803/280 287/1241/280 288/804/280
f 280/806/281 295/1242/281 296/807/281
f 274/809/282 273/1243/282 288/810/282
f 281/812/283 296/1244/283 297/813/283
f 274/815/284 289/1245/284 290/816/284
f 276/822/287 275/1246/287 290/823/287
f 268/825/288 283/819/288 284/826/288
f 295/828/289 310/1247/289 311/829/289
f 289/831/290 288/1248/290 303/832/290
f 296/834/291 311/1249/291 312/835/291
f 290/837/292 289/1250/292 304/838/292
f 290/844/295 305/1251/295 306/845/295
f 283/847/296 298/841/296 299/848/296
f 291/850/297 306/1252/297 307/851/297
f 284/853/298 299/1253/298 300/854/298
f 293/856/299 292/1254/299 307/857/299
f 285/859/300 300/1255/300 301/860/300
f 293/862/301 308/1256/301 309/863/301
f 287/865/302 286/1257/302 301/866/302
f 295/868/303 294/1258/303 309/869/303
f 287/871/304 302/1259/304 303/872/304
f 300/874/367 299/1260/367 314/875/367
f 308/877/306 307/1261/306 322/878/306
f 301/880/307 300/1262/307 315/881/307
f 308/883/308 323/1263/308 324/884/308
f 302/886/309 301/1264/309 316/887/309
f 309/889/310 324/1265/310 325/890/310
f 302/892/311 317/1266/311 318/893/311
f 310/895/368 325/1267/368 326/896/368
f 304/898/313 303/1268/313 318/899/313
f 311/901/314 326/1269/314 327/902/314
f 304/904/315 319/1270/315 320/905/315
f 305/911/318 320/1271/318 321/912/318
f 299/914/319 298/1272/319 313/908/319
f 306/916/320 321/1273/320 322/917/320
f 319/919/321 318/1274/321 333/920/321
f 327/922/322 326/1275/322 341/923/322
f 319/925/323 334/1276/323 335/926/323
f 320/932/326 335/1277/326 336/933/326
f 313/935/327 328/929/327 329/936/327
f 321/938/328 336/1278/328 337/939/328
f 314/941/329 329/1279/329 330/942/329
f 323/944/330 322/1280/330 337/945/330
f 315/947/331 330/1281/331 331/948/331
f 323/950/332 338/1282/332 339/951/332
f 317/953/333 316/1283/333 331/954/333
f 324/956/334 339/1284/334 340/957/334
f 317/959/335 332/1285/335 333/960/335
f 325/962/336 340/1286/336 341/963/336
f 338/965/337 337/1287/337 343/966/337
f 331/968/338 330/1288/338 3/969/338
f 338/971/339 344/1289/339 345/972/339
f 332/974/340 331/1290/340 4/975/340
f 339/977/341 345/1291/341 10/978/341
f 333/980/342 332/1292/342 5/981/342
f 340/983/343 10/1293/343 346/984/343
f 334/986/344 333/1294/344 6/987/344
f 341/989/345 346/1295/345 347/990/345
f 335/992/369 334/1296/369 7/993/369
f 335/999/370 8/1297/370 9/1000/370
f 329/1002/350 328/1298/350 1/996/350
f 336/1004/351 9/1299/351 343/1005/351
f 330/1007/352 329/1300/352 2/1008/352
f 42/1046/353 41/111/353 43/1048/353
f 41/111/353 162/35/353 43/1048/353
f 162/35/353 71/37/353 55/113/353
f 55/113/353 54/1043/353 53/1010/353
f 53/1010/353 52/1051/353 51/133/353
f 51/133/353 50/127/353 53/1010/353
f 50/127/353 49/1011/353 53/1010/353
f 49/1011/353 48/1045/353 47/1044/353
f 47/1044/353 46/102/353 45/1041/353
f 45/1041/353 44/1050/353 162/35/353
f 44/1050/353 43/1048/353 162/35/353
f 162/35/353 55/113/353 53/1010/353
f 49/1011/353 47/1044/353 162/35/353
f 47/1044/353 45/1041/353 162/35/353
f 162/35/354 56/159/354 57/1012/354
f 57/1012/354 58/178/354 59/184/354
f 59/184/354 60/144/354 57/1012/354
f 60/144/354 61/1013/354 57/1012/354
f 61/1013/354 62/156/354 63/163/354
f 63/163/354 64/169/354 61/1013/354
f 64/169/354 65/1014/354 61/1013/354
f 65/1014/354 66/181/354 67/1052/354
f 67/1052/354 68/147/354 69/153/354
f 69/153/354 70/161/354 71/37/354
f 71/37/354 162/35/354 57/1012/354
f 65/1014/354 67/1052/354 57/1012/354
f 67/1052/354 69/153/354 57/1012/354
f 69/153/354 71/37/354 57/1012/354
